1044093	2113335		Galvez Bank						
1044154	2114227		Malaguana-Gadao Ridge						
6533419	2114227		South Back Arc Spreading Center - Fumarolic Activity						
6533420	2114227		Archaean Site - Fumarolic Activity						
6533421	2114227		Pika Site - Fumarolic Activity						
6533422	2114227		Mariana Trench Marine National Monument - Vents Unit						
6634561	4038438		WW2						
6634613	4038440		Peladgi Islets						
15350536	4038452	wkdt	Q25185627						
6582442	4038456		Golf Pier G						
15757534	4038472	wkdt	Q25185626						
6634691	4038473	post	96915						
6884314	4038473	link	https://en.wikipedia.org/wiki/Piti%2C_Guam						
12512120	4038473		Piti Village						
12559134	4038473		Petey						
12668088	4038473		Piti Vilage						
16709063	4038473	unlc	GUPIT						
8234388	4038478	link	https://en.wikipedia.org/wiki/Piti,_Guam						
8487004	4038478		Piti	1	1				
6594271	4038479		War in the Pacific National Historical Park - Piti Guns Unit						
6594272	4038479		US National Register of Historic Places						
6633877	4038481		MEC Plant - Marianas Energy Company						
12537514	4038481		Piti Power Plant						
6634588	4038483		US National Register of Historic Places						
6634593	4038483	es	Plaza de Magallanes				1		
12433117	4038483		Plaza Principal						
12559135	4038483		Plaza de Espana *						
12708560	4038483		Magellan Plaza						
12748881	4038483		Plaza Espagna						
16137367	4038483	link	https://en.wikipedia.org/wiki/Plaza_de_Espa%C3%B1a_%28Hag%C3%A5t%C3%B1a%29						
15569223	4038492	wkdt	Q25185621						
6634719	4038495		Two Lovers Park						
15850410	4038500	wkdt	Q25185620						
8074777	4038502	link	https://en.wikipedia.org/wiki/Ritidian_Point						
12760303	4038503		Ritidian Unit Guam National Wildlife Refuge						
16181953	4038503	link	https://en.wikipedia.org/wiki/Guam_National_Wildlife_Refuge						
12367353	4038509		Sabana Maleyuc Hill						
12537512	4038509		Maleyuc Sabana						
12472777	4038522		Saint John's School						
12453310	4038523		Saint John's Church						
12444309	4038524		Saint Joseph's Church						
15443732	4038531	wkdt	Q25185616						
6634186	4038540		San Francisco de Assisi						
15670220	4038543	wkdt	Q25185615						
5713565	4038546	link	https://en.wikipedia.org/wiki/Mount_Lamlam						
6582411	4038546		Lamlam - Top of Guam						
6633848	4038546		SW Mountain Chain						
6634690	4038554	post	96915						
6879816	4038554	link	https://en.wikipedia.org/wiki/Santa_Rita%2C_Guam						
7636314	4038554	en	Santa Rita	1					
7752400	4038555	link	https://en.wikipedia.org/wiki/Santa_Rita,_Guam						
8487008	4038555		Santa Rita	1	1				
16934595	4038555	unlc	GUSAN						
6634191	4038557		Hyundai			1			
6633868	4038559		Volcanic Outcrop through Limestone Plateau						
16077765	4038561		Pope John Paul II Guam Visit 1981 Monument						
6633855	4038566		SW Mountain Chain						
15466902	4038566	wkdt	Q25185610						
6634221	4038568		Satpon Point						
12668089	4038568		Saupon Point						
15244177	4038568	wkdt	Q25185609						
6634628	4038570		Navol Governor Seaton Schroeder 1900						
16142096	4038584	link	https://en.wikipedia.org/wiki/Sigua_River						
2989153	4038588	link	https://en.wikipedia.org/wiki/Sinajana%2C_Guam						
6634710	4038588	post	96910						
12537513	4038588		Sinahanna						
13597623	4038588		Sinajana						
13774958	4038588	unlc	GUSJA						
6582332	4038590	ch	Sinahånña						
8234389	4038590	link	https://en.wikipedia.org/wiki/Sinajana,_Guam						
8487005	4038590		Sinajana	1	1				
12596943	4038597		Saucio						
12409768	4038603		South Tipalao Housing Area						
6874559	4038604	link	https://en.wikipedia.org/wiki/Southern_High_School_%28Guam%29						
15287565	4038604	wkdt	Q7569978						
6582456	4038606	es	Piedras de la Fragata Espanola				1		
12625170	4038606		Rocks of the Spanish Frigate						
6634203	4038608		Sumay Villagers moved to new Santa Rita Village						
12596944	4038608		Sumai						
6594282	4038610		Sumay Cemetary						
6594283	4038610		US National Register of Historic Places						
12748883	4038612		Sumay						
6634528	4038615		Superior Court of Guam						
6634529	4038615		Supreme Court of Guam						
6634530	4038615		Drug Courts of Guam						
6634531	4038615		Traffic Court of Guam						
6634532	4038615		Small Claims Court of Guam						
15762382	4038621	wkdt	Q25185599						
15550899	4038623	wkdt	Q25185598						
6633845	4038625		SW Mountain Chain						
15686434	4038625	wkdt	Q25185597						
13641662	4038627		Tagachang Beach						
15780142	4038627	wkdt	Q25185596						
6634623	4038629		Tagachan Point				1		
12409769	4038629		Taga`chang Point						
14938729	4038629	wkdt	Q25185595						
12568621	4038631		Toguag						
12606747	4038631		Tatguat						
12718669	4038631		Taguag						
6634641	4038645		DoD Naval Reserve - Ordnance Annex						
2989154	4038647	link	https://en.wikipedia.org/wiki/Talofofo%2C_Guam						
6633970	4038647	ch	Talo'fo'fo						
6633972	4038647		Pre-WW2 Part of Inarajan				1		
6634686	4038647	post	96915						
12559136	4038647		Talo`fo`fo						
8083541	4038649	link	https://en.wikipedia.org/wiki/Talofofo_Bay						
6582333	4038652	ch	Talo'fo'fo						
8234390	4038652	link	https://en.wikipedia.org/wiki/Talofofo,_Guam						
8487009	4038652		Talofofo	1	1				
12367354	4038654		Mahnao Umatan						
6633768	4038655		Talofo Golf Resort						
8070095	4038656	link	https://en.wikipedia.org/wiki/Talofofo_River						
6634619	4038659		Timoneng				1		
6634703	4038659	post	96913						
6634704	4038659	post	96931 PO BOX						
8351391	4038659	link	https://en.wikipedia.org/wiki/Tamuning,_Guam						
12325096	4038659		Maria Christina						
13774959	4038659	unlc	GUTMG						
7752402	4038661	link	https://en.wikipedia.org/wiki/Tamuning,_Guam						
8487010	4038661	en	Tamuning	1	1				
8487011	4038661		Tamuning-Tumon-Harmon						
8487012	4038661	ch	Tamuneng						
12748884	4038662		Tamuning School						
15643415	4038665	wkdt	Q25185588						
6633875	4038666		Pruvient LLC Steam Turbine Power Plant						
6634225	4038667		Tantapalao Point				1		
15293181	4038667	wkdt	Q25185587						
15708946	4038671	wkdt	Q25186198						
6582458	4038682		Coal Barges Channel to Hagnata Powerplant						
13653475	4038685		Tinago River						
16184170	4038685	link	https://en.wikipedia.org/wiki/Tinago_River						
6634187	4038688		SW Mountain Chain						
15428843	4038688	wkdt	Q25185578						
6634224	4038689		Haputo Bay				1		
15758341	4038690	wkdt	Q25186190						
12559137	4038696		Togoha Beach						
15600501	4038696	wkdt	Q25185576						
16198387	4038699	link	https://en.wikipedia.org/wiki/Togcha_River						
12559138	4038710		To`to						
12668090	4038711		Tres-Reyes						
15708978	4038712	wkdt	Q25185571						
12559139	4038718		Tomhom						
13774960	4038718	unlc	GUTMN						
16152347	4038728	link	https://en.wikipedia.org/wiki/Ugum_River						
15467689	4038730	wkdt	Q25185568						
6633923	4038733	ch	Humåtak						
6634685	4038733	post	96915						
6880378	4038733	link	https://en.wikipedia.org/wiki/Umatac%2C_Guam						
12367356	4038733		Umatag						
12409770	4038733		San Antonio de Umatag						
12668091	4038733		Humatak						
12668097	4038733		Ville D'Umata						
12325097	4038735		Port D'Umata						
12367357	4038735		Umatak Bay						
12367358	4038735		Umata Bay						
12409771	4038735		Umata Roads						
12668098	4038735		Puerto de Umatac						
12748885	4038735		Umatag Bay						
6594232	4038736		Umatac School Architect Richard J Neutra						
6582334	4038739	ch	Humåtak						
7752395	4038739	link	https://en.wikipedia.org/wiki/Umatac,_Guam						
8487013	4038739	en	Umatac	1	1				
8487014	4038739		Umata				1		
6634400	4038744		US Naval Air Station Agana post-WW2						
12708562	4038746		United States Hospital						
6885510	4038749	link	https://en.wikipedia.org/wiki/University_of_Guam						
12325000	4038749		Unibetsedat Guahan						
12596608	4038749		Territorial College of Guam						
12748865	4038749		College of Guam						
15537502	4038751	wkdt	Q25185563						
12626896	4038753		Andersen Elementary School						
12732382	4038753		Andersen School						
6633797	4038755		Coco Palm Garden Beach						
16185311	4038755	link	https://en.wikipedia.org/wiki/Uruno_Beach						
15539796	4038756	wkdt	Q25185561						
12760279	4038759		Dededo Middle School						
12325098	4038765		Western Shoals						
6634627	4038766		Naval Governor Captain Ivan Cyrus Wettengel 1920						
6634210	4038769		Wharf Alfa						
6634596	4038772		Pier E Aircraft Carrier Dock						
6634211	4038777		Wharf Bravo						
6634209	4038778		Wharf Romeo						
6634208	4038779		Wharf Sierra						
6634207	4038780		Wharf Tango						
6634206	4038781		Wharf Uniform						
6634205	4038782		Wharf Victor						
6634204	4038783		Wharf X-Ray						
6582476	4038786		US Natioanal Register of Historic Places						
6633973	4038787		frmr Takayama Golf Club						
12668100	4038788		Our Lady of Peace Memorial Park Cemetery						
8096378	4038791	link	https://en.wikipedia.org/wiki/Malojloj						
6634694	4038794	post	96929						
8351318	4038794	link	https://en.wikipedia.org/wiki/Yigo,_Guam						
12748886	4038794		Yigu						
13774961	4038794	unlc	GUYGO						
6582335	4038796	ch	Yigu						
7752401	4038796	link	https://en.wikipedia.org/wiki/Yigo,_Guam						
8487015	4038796	en	Yigo						
15419820	4038801	wkdt	Q25185553						
15563008	4038804	wkdt	Q25185551						
8079745	4038807	link	https://en.wikipedia.org/wiki/Ylig_River						
2989156	4038809	link	https://en.wikipedia.org/wiki/Yona%2C_Guam						
6634118	4038809	ch	Yo’ ña						
6634687	4038809	post	96915						
12708563	4038809		Yo`na						
6582336	4038811	ch	Yo’ ña						
7752396	4038811	link	https://en.wikipedia.org/wiki/Yona,_Guam						
8487016	4038811	en	Yona	1	1				
12596945	4038816		Ipao Beach						
15573577	4038816	wkdt	Q25185546						
15579473	4038817	wkdt	Q25186183						
6634343	4042218		Guam Municipal Golf Course						
12367360	4042273		Drydock Island						
12748888	4042444		Cobras Island Channel						
12492101	4042475		Mount Carmel Cemetery						
15278052	4042578	wkdt	Q25185543						
15656160	4042582	wkdt	Q25185542						
6634700	4042606	post	96910						
12767353	4042606		Otdot						
6634220	4042614		Point Oca				1		
12708558	4042614		Oca Point						
15482476	4042614	wkdt	Q25185540						
15715060	4042626	wkdt	Q25185539						
6634708	4043390	post	96910						
6582331	4043396	ch	Malesso				1		
7752398	4043396	link	https://en.wikipedia.org/wiki/Merizo,_Guam						
8487002	4043396		Merizo	1	1				
6582561	4043397		US National Register of Historic Places						
6582562	4043397		Parishes Umatac and Merizo Rectory						
6582563	4043397		Oldest Guaman Permanently Occupied House						
6633926	4043397	ch	Malesso Kombento						
12335457	4043397		Merizo Kombento						
6633925	4043399	ch	Malesso						
6634683	4043399	post	96915						
6634684	4043399	post	96916 PO BOX						
8351427	4043399	link	https://en.wikipedia.org/wiki/Merizo,_Guam						
12708557	4043399		Merico						
12748877	4043399		Maleso						
15706829	4043402	wkdt	Q25186178						
6582566	4043406		Matagi						
6633867	4043406		Volcanic Outcrop through Limestone Plateau						
12325093	4043406		Mount Mataguac						
15777770	4043406	wkdt	Q25185536						
12621103	4043415		M U Lujan Elementary School						
8234387	4043416	link	https://en.wikipedia.org/wiki/Mangilao,_Guam						
8487001	4043416	en	Mangilao	1	1				
16152269	4043417	link	https://en.wikipedia.org/wiki/Manengon_River						
6634223	4043419		Manello Channel				1		
12708553	4043419		Usau Channel						
12748876	4043425		Matilog Point						
15655438	4043425	wkdt	Q25185532						
6634709	4043429	post	96910						
16186498	4043437	link	https://en.wikipedia.org/wiki/Madog_River						
6633778	4043440		Mt Santa Rosa Elementary School						
12748875	4043447		Lumuna Point						
15228830	4043447	wkdt	Q25185528						
6634595	4043457		Paseo Loop			1			
12708543	4043458		Late Point						
15605286	4043458	wkdt	Q25185526						
6594224	4043462		Fouha Rock						
12325089	4043462		Magellan's Guidepost						
12325090	4043462		Laso Fua Rock						
16136031	4043468	link	https://en.wikipedia.org/wiki/Laelae_River						
12537515	4043472		KUAM-FM (Agana)						
12596947	4043472		KUAM-FM (Hagatna)						
12325094	4043479		New Piti School						
12409766	4043479		Piti Middle School						
15633407	4043483	wkdt	Q25185519						
12512115	4043489		Dry Dock Reef						
15661762	4043495	wkdt	Q25185517						
16175576	4043496	link	https://en.wikipedia.org/wiki/Inarajan_River						
6633952	4043497		Southern Public Help Center						
2989179	4043499	link	https://en.wikipedia.org/wiki/Inarajan%2C_Guam						
6633953	4043499	ch	Inalåhan						
6634681	4043499	post	96915						
6634682	4043499	post	96917 PO BOX						
12596939	4043499		Inalahan						
12748872	4043499		Inalajan						
13774957	4043499	unlc	GUINA						
6634622	4043504		Taogam Point				1		
12596611	4043504		Lates Point						
15459503	4043505	wkdt	Q25185513						
6582519	4043508		US National Register of Historic Places						
14911461	4043509	wkdt	Q25185512						
6598385	4043514		Juan M. Guerrero Elementary School						
6634401	4043516		frmr Harmon Runway along Industrial Park Road						
6634402	4043516		Depot Field						
6634403	4043516		Lieutenant General Millard Fillmore Harmon Jr. Airfield						
6634524	4043520		Agana Swamp						
12748858	4043520		Hagatna Swamp						
12325081	4043521		Hagatna Springs						
12559119	4043521		Agana Springs						
12367345	4043522		Agana River						
12748857	4043522		Hagatna River						
16182884	4043522	link	https://en.wikipedia.org/wiki/Hag%C3%A5t%C3%B1a_River						
6634586	4043523		US National Register of Historic Places						
12677829	4043523		Agana Post Office						
12760277	4043523		Hagatna Post Office						
8234384	4043524	link	https://en.wikipedia.org/wiki/Agana_Heights,_Guam						
8486982	4043524	en	Agana Heights	1	1				
12335228	4043524		Agana Heights Election District						
12519270	4043524		Hagatna Heights Election District						
6634711	4043525	post	96910						
6634712	4043525	post	96919						
8351436	4043525	ch	Tutuhan						
12512111	4043525		Hagatna Heights						
12748856	4043525		Agana Heights						
12325080	4043527		Agana Bay						
12748832	4043527		Hagatna Bay						
7491491	4043534	link	https://en.wikipedia.org/wiki/Guam_Premier_Outlets						
15279429	4043534	wkdt	Q5613444						
6634585	4043538		US National Register of Historic Places						
6634591	4043540		Guam Legislature						
11316738	4043541	link	https://en.wikipedia.org/wiki/Guam_Community_College						
12559128	4043541		Guam Trade and Technical School						
12596610	4043541		Kulehon Kumunidat Guahan						
12708542	4043541		Guam Trade and Tech School						
1620195	4043542	es	Guam						
1620196	4043542	en	Guam						
1620197	4043542	de	Guam						
1620198	4043542	af	Guam						
1620199	4043542	ar	غوام						
1620200	4043542	bg	Гуам						
1620201	4043542	ca	Guam						
1620202	4043542	ch	Guåhan						
1620203	4043542	cs	Guam						
1620204	4043542	da	Guam						
1620205	4043542	eo	Gvamo						
1620206	4043542	et	Guam						
1620207	4043542	fi	Guam						
1620208	4043542	fr	Guam						
1620209	4043542	gl	Guam						
1620210	4043542	he	גואם						
1620211	4043542	hr	Guam						
1620212	4043542	hu	Guam						
1620213	4043542	id	Guam						
1620214	4043542	io	Guam						
1620215	4043542	is	Gvam						
1620216	4043542	it	Guam						
1620217	4043542	ja	グアム						
1620218	4043542	ko	괌						
1620219	4043542	kw	Guam						
1620220	4043542	lt	Guamas						
1620221	4043542	nl	Guam						
1620222	4043542	nn	Guam						
1620223	4043542	no	Guam						
1620225	4043542	pl	Guam						
1620226	4043542	pt	Guam						
1620227	4043542	ru	Гуам						
1620228	4043542	sk	Guam						
1620229	4043542	sl	Guam						
1620230	4043542	sv	Guam						
1620231	4043542	tr	Guam						
1620232	4043542	uk	Гуам						
1620233	4043542	zh	關島						
1633400	4043542	oc	Guam						
1895911	4043542	se	Guam						
1895912	4043542	ta	குவாம்						
1895913	4043542	uk	Ґуам						
1981448	4043542	bs	Guam						
1981449	4043542	la	Guama						
1981450	4043542	os	Гуам						
1981451	4043542	pam	Guam						
1981452	4043542	ro	Guam						
1981453	4043542	sr	Гвам						
1981454	4043542	tl	Guam						
1981455	4043542	vi	Guam						
2427852	4043542	th	กวม						
3056885	4043542	link	https://ru.wikipedia.org/wiki/%D0%93%D1%83%D0%B0%D0%BC						
6582412	4043542		Uplifted Coral Limestone Island Guam North						
6582413	4043542		STEVEDORE WW2						
6582416	4043542		Omiya Jima - JP renamed WW2				1		
6633865	4043542		Uplifted Limestone with Volcanic Core Guam South						
6634639	4043542	es	San Juan				1		
7995700	4043542	link	https://en.wikipedia.org/wiki/Guam						
12324725	4043542		Goan						
12325085	4043542		Guxam						
12325086	4043542		Ysla de Guham						
12325087	4043542		Iguan						
12325088	4043542		L'Isle de Saint Jean						
12367349	4043542		Bacim						
12367350	4043542		Baham						
12367351	4043542		Guakhan						
12409319	4043542		Guahon						
12409329	4043542		Omiyajima						
12409388	4043542		Goam						
12409762	4043542		Isla de Guaham						
12409763	4043542		Bam						
12409764	4043542		Guajano						
12502866	4043542		Guajan						
12511893	4043542		Omiya Jima						
12512113	4043542		Gwam						
12512114	4043542		Guayan						
12514206	4043542		Isla de San Juan						
12537370	4043542		L'ile de Guam						
12537510	4043542		Isola Di Guam						
12559122	4043542		Uan						
12559125	4043542		Stevedore						
12559126	4043542		Guan						
12596609	4043542		Boan						
12596936	4043542		Guam Island						
12596937	4043542		Isles des Larrons						
12596938	4043542		Isla de las Velas Latinas						
12668085	4043542		Bahan						
12708536	4043542		Omi Jima						
12708537	4043542		Gua						
12708538	4043542		Waghal						
12708539	4043542		Iguana						
12708540	4043542		Insula Guahan						
12708541	4043542		Huajan						
12748869	4043542		L'Isle de Guahan						
12748870	4043542		Guahan						
12748871	4043542		Volin						
6634625	4043543		Goal Point				1		
6634539	4043547		Designer Architect Richard Neutra						
13774955	4043547	unlc	GUGUM						
12325084	4043549		Gun Beach						
12748868	4043549		Gognga Beach						
15639799	4043549	wkdt	Q25185491						
12537511	4043556		Gab Gab Beach						
15235317	4043556	wkdt	Q25185488						
11838311	4043561		Fort Nuestra Senora de la Soledad						
12409772	4043561		Fort Nuestra Senora De La Soledad						
16140147	4043561	link	https://en.wikipedia.org/wiki/Fort_Nuestra_Senora_de_la_Soledad						
6582526	4043563		US National Register of Historic Places						
6634527	4043563		Fort Apugan			1			
12325100	4043563		Fuerte de Santa Agueda						
6634562	4043564		WW2						
15688681	4043565	wkdt	Q25185481						
6633854	4043571		SW Mountain Chain						
15654710	4043571	wkdt	Q25186153						
12568543	4043578		Hobie Beach						
15649510	4043578	wkdt	Q25185477						
15740634	4043579	wkdt	Q25185475						
6634649	4043590		Yacht Clearance Point						
15492619	4043599	wkdt	Q25185471						
12502869	4043605		Commanders Cut						
12626518	4043606		Blessed Diego Luis De San Vitores Church						
12596934	4043609		Chonito Cliff						
12708535	4043609		Chorito Cliff						
6634589	4043610		First Catholic Chamorro Chief Quipuha 1669						
6634590	4043610		Chief Kepuha Statue						
12668084	4043611		Brodie School						
7752391	4043614	link	https://en.wikipedia.org/wiki/Chalan_Pago-Ordot,_Guam						
8486998	4043614	en	Chalan Pago-Ordot						
6634699	4043615	post	96910						
8351430	4043615		Chalan Pågu-Otdot						
8351431	4043615	link	https://en.wikipedia.org/wiki/Chalan_Pago-Ordot,_Guam						
12596933	4043615		Chalan Pagu						
6634189	4043620		SW Mountain Chain						
15673931	4043620	wkdt	Q25185466						
16171604	4043621	link	https://en.wikipedia.org/wiki/Cetti_River						
12760278	4043627		C L Taitano Elementary School						
6634541	4043631		US National Register of Historic Places						
6633856	4043641		SW Mountain Chain						
8079348	4043641	link	https://en.wikipedia.org/wiki/Mount_Bolanos						
6582463	4043649		frmr USN Ammo Wharf						
6634697	4043656	post	96921 PO BOX						
6634698	4043656	post	96913						
6634702	4043656	post	96929						
8351432	4043656	link	https://en.wikipedia.org/wiki/Barrigada,_Guam						
8351433	4043656		Barigåda						
12748837	4043656		Barigada						
13774952	4043656	unlc	GUBRR						
16172133	4043663	link	https://en.wikipedia.org/wiki/Atantano_River						
15673044	4043673	wkdt	Q25185459						
16180192	4043689	link	https://en.wikipedia.org/wiki/Asan_River						
6582471	4043690		War in the Pacific Historical Park - Asan Inland Unit						
6582472	4043690		US National Register of Historic Places						
6582326	4043691	ch	Assan-Ma'Ina						
7752399	4043691	link	https://en.wikipedia.org/wiki/Asan,_Guam						
8486985	4043691	en	Asan	1	1				
7057550	4043695	link	https://en.wikipedia.org/wiki/Asagas						
12596932	4043695		As-Agas						
6582399	4043700		New Inner Harbor						
12442189	4043700		Inner Harbor						
12559129	4043700		La Caldera Chica						
12596940	4043700		Inner Apra Harbor						
6634614	4043702		Apoaca Point						
15254190	4043704	wkdt	Q25185448						
12596930	4043707		Anae Island						
6634188	4043708		SW Mountain Chain						
6634200	4043708		Mount Reconnaissance				1		
15210871	4043708	wkdt	Q25185445						
12625166	4043709		Aluton Island						
12668080	4043709		Alutom Island						
6633844	4043711		SW Mountain Chain						
8091923	4043711	link	https://en.wikipedia.org/wiki/Mount_Alifan						
15570478	4043713	wkdt	Q25185443						
12367359	4043717		Agueda Middle School						
12514191	4043717		Washington Junior High School						
12524647	4043717		Washington High School						
15284834	4043720	wkdt	Q25185441						
6582325	4043725	ch	Hågat						
8234385	4043725	link	https://en.wikipedia.org/wiki/Agat,_Guam						
8486996	4043725	en	Agat	1	1				
7043032	4043726	link	https://en.wikipedia.org/wiki/Agafo_Gumas						
15493660	4043726	wkdt	Q4690971						
15356668	4043730	wkdt	Q25253481						
12325091	4043731		Leahy Field						
15628450	4043732	wkdt	Q25186122						
15570936	4043738	wkdt	Q25186120						
15720650	4043741	wkdt	Q25186109						
7523938	4043780	link	https://en.wikipedia.org/wiki/Agat_Bay						
6873111	4043789	link	https://en.wikipedia.org/wiki/Academy_of_Our_Lady_of_Guam						
15547836	4043794	wkdt	Q25186104						
12559115	4043800		Achugas Point						
15499371	4043800	wkdt	Q25186827						
12596606	4043801		Missionary Point						
12596928	4043801		Point Adelup						
15692416	4043801	wkdt	Q25186091						
2989180	4043804	link	https://en.wikipedia.org/wiki/Agat%2C_Guam						
6634136	4043804	ch	Hågat						
6634688	4043804	post	96928 PO BOX						
12708529	4043804		Hagat						
6634523	4043807		Afame						
7036444	4043807	link	https://en.wikipedia.org/wiki/Afami						
15784654	4043807	wkdt	Q4688790						
6634626	4043809		Ajayan Point				1		
8093109	4043809	link	https://en.wikipedia.org/wiki/Aga_Point						
6634713	4043812	post	96910						
8351434	4043812	ch	Assan						
8351435	4043812	link	https://en.wikipedia.org/wiki/Asan,_Guam						
15355056	4043813	wkdt	Q25186074						
15477210	4043814	wkdt	Q25186067						
6582478	4043817		War in the Pacific National Historical Park - Agat Unit						
6582479	4043817		Agat Invasion Beach						
6582480	4043817		US National Register of Historic Places						
16177337	4043817	link	https://en.wikipedia.org/wiki/Agat_Invasion_Beach						
8081454	4043819	link	https://en.wikipedia.org/wiki/Agfayan_River						
6634320	4043821		frmr Alte Guam Golf Resort						
6634342	4043821		frmr Hatsuho Golf Course						
12325082	4043823		Port Ajayan						
6582522	4043831		Two Lovers Point						
12373720	4043831		Puntan dos Amantes						
12748860	4043831		Puntan de los dos Amantes						
15609282	4043831	wkdt	Q25186826						
6582371	4043833		Outer Harbor						
12325083	4043833		Port San Louis D'Apra						
12409757	4043833		Port de la Caldera de Apra						
12409758	4043833		San Luis d'Apra Bay						
12502863	4043833		La Caldera de Apra Harbour						
12502864	4043833		Puerto de Apra						
12512112	4043833		Apura-wan						
12537508	4043833		Luis Harbor						
12559120	4043833		La Calderona de Apra						
12559121	4043833		Apra Hafen						
12596607	4043833		Harbor of San Luis D'Apra						
12596931	4043833		Caldera de Apra						
12668081	4043833		Port Apra						
12668082	4043833		San Luis D'Apra						
12708530	4043833		La Caldera Bay						
12708531	4043833		Puerto de San Luis de Apra						
12748861	4043833		Bai San Luis de Apra						
12748862	4043833		Harbor of Apra						
16709062	4043833	unlc	GUAPR						
6634226	4043839		Haputo Point				1		
15562984	4043839	wkdt	Q25186046						
15715933	4043846	wkdt	Q25186040						
6634564	4043848		WW2						
15611144	4043854	wkdt	Q25186031						
15204637	4043856	wkdt	Q25186025						
7553806	4043857	link	https://en.wikipedia.org/wiki/As-Gadao						
12625167	4043857		As-Gadao Island						
15612804	4043858	wkdt	Q25186824						
6634120	4043861		Manengon						
12668083	4043861		As-Misen						
6582473	4043862		War in the Pacific National Historical Park - Asan Beach Unit						
6582474	4043862		US National Register of Historic Places						
6582475	4043862		Asan Invasion Beach						
16194528	4043862	link	https://en.wikipedia.org/wiki/Asan_Invasion_Beach						
15642735	4043871	wkdt	Q25186016						
12708556	4043875		Nidual River						
6582328	4043877	ch	Dededu						
8234386	4043877	link	https://en.wikipedia.org/wiki/Dededo,_Guam						
8486999	4043877	en	Dededo	1	1				
6634659	4043880		Barrigada Vulcanic Outcrop through Limestone Plateau						
12708532	4043880		Barrigada Hill						
15473515	4043883	wkdt	Q25185994						
13653733	4043884		Guam Memorial Park						
7752393	4043885	link	https://en.wikipedia.org/wiki/Barrigada,_Guam						
8486997	4043885	en	Barrigada	1	1				
6634222	4043887		Gognga				1		
15463470	4043887	wkdt	Q25187707						
6582443	4043888		Shell Pier F-1						
15802768	4043891	wkdt	Q25186818						
12748863	4043893		Carbullido School						
12718578	4043897		Saint Thaddeus School						
12718579	4043897		Bishop Baumgartner Junior High School						
15352675	4043898	wkdt	Q25186817						
6890044	4043904	link	https://en.wikipedia.org/wiki/Cabras_Island						
12367346	4043904		Isla Apapa						
12409759	4043904		Appapa						
12708533	4043904		Apapas						
12708534	4043904		Anapa						
12367347	4043905		Kalalan Bank						
12409760	4043905		Banco de Calalan						
6634219	4043907		Gapan Islet				1		
12367348	4043907		Gapang Islet						
6634695	4043909	post	96912 PO BOX						
6634696	4043909	post	96929						
8351428	4043909	link	https://en.wikipedia.org/wiki/Dededo,_Guam						
8351429	4043909		Dedidu						
13774953	4043909	unlc	GUDED						
16168059	4043915	link	https://en.wikipedia.org/wiki/Cetti_Bay						
7505968	4043926	link	https://en.wikipedia.org/wiki/Cocos_Lagoon						
15485623	4043929	wkdt	Q25186794						
6889181	4043930	link	https://en.wikipedia.org/wiki/Cocos_Island_%28Guam%29						
12409761	4043930		Yurajano						
12559123	4043930		Dano Island						
12559124	4043930		Isla de Cocos						
12596935	4043930		Dano Isle						
12748864	4043930		Ysla de Cocos						
6598364	4043937		Yigo Elementary School						
12748887	4043937		Yigo School						
12502865	4043947		Recreation Beach						
15399270	4043947	wkdt	Q25186793						
5898648	4043949	link	https://en.wikipedia.org/wiki/Dulce_Nombre_de_Maria_Cathedral_Basilica						
6634299	4043949		The Roman Catholic Archdiocese of Agana						
12677830	4043949		Dulce Nombre De Maria Cathedral *						
15266830	4043954	wkdt	Q25186789						
8101794	4043956	link	https://en.wikipedia.org/wiki/Facpi_Point						
15731262	4043957	wkdt	Q25186787						
12512122	4043958		Fena Filtration Plant						
6874109	4043963	link	https://en.wikipedia.org/wiki/Father_Due%C3%B1as_Memorial_School						
12537509	4043963		Father Duenas School						
12625169	4043963		Father Jesus Baza Duenas Memorial School						
6634701	4043965	post	96910						
7636315	4043965	link	https://en.wikipedia.org/wiki/Chalan_Pago						
15498664	4043974	wkdt	Q25186781						
11838312	4043975		Fort Santo Angel						
16135625	4043975	link	https://en.wikipedia.org/wiki/Fort_Santo_Angel						
12748867	4043976		Pigo River						
8084653	4043979	link	https://en.wikipedia.org/wiki/Fouha_Point						
12708588	4043980		Sanchez School						
12748882	4043980		F Q Sanchez School						
11292877	4043986	link	https://en.wikipedia.org/wiki/George_Washington_High_School_%28Guam%29						
12494015	4043986		Washington High School						
15280543	4043986	wkdt	Q5545974						
2418178	4043988	am	ጉዋም	1					
2418179	4043988	ar	غوام	1					
2418180	4043988	bg	Гуам	1					
2418181	4043988	bn	গুয়াম	1					
2418182	4043988	cs	Guam	1					
2418183	4043988	cy	Guam	1					
2418184	4043988	da	Guam	1					
2418185	4043988	de	Guam	1					
2418186	4043988	el	Γκουάμ	1					
2418187	4043988	en	Guam	1					
2418188	4043988	eo	Gvamo	1					
2418189	4043988	es	Guam	1					
2418190	4043988	et	Guam	1					
2418191	4043988	fa	گوام	1					
2418192	4043988	fi	Guam	1					
2418193	4043988	fr	Guam	1					
2418194	4043988	ga	Guam	1					
2418195	4043988	he	גואם	1					
2418196	4043988	hi	गुआम	1					
2418197	4043988	hr	Guam	1					
2418198	4043988	hu	Guam	1					
2418199	4043988	id	Guam	1					
2418200	4043988	is	Gvam	1					
2418201	4043988	it	Guam	1					
2418202	4043988	ja	グアム	1					
2418203	4043988	ka	გუამი	1					
2418204	4043988	ko	괌	1					
2418205	4043988	lt	Guamas	1					
2418206	4043988	lv	Guama	1					
2418207	4043988	mk	Гуам	1					
2418208	4043988	ms	Guam	1					
2418209	4043988	mt	Guam	1					
2418210	4043988	nb	Guam	1					
2418211	4043988	nl	Guam	1					
2418212	4043988	nn	Guam	1					
2418213	4043988	pl	Guam	1					
2418214	4043988	pt	Guam	1					
2418215	4043988	ro	Guam	1					
2418216	4043988	ru	Гуам	1					
2418217	4043988	se	Guam	1					
2418218	4043988	sk	Guam	1					
2418219	4043988	sl	Guam	1					
2418220	4043988	sr	Гуам	1					
2418221	4043988	sv	Guam	1					
2418222	4043988	th	กวม	1					
2418223	4043988	tr	Guam	1					
2418224	4043988	uk	Гуам	1					
2418225	4043988	zh	关岛	1					
5423956	4043988	link	https://en.wikipedia.org/wiki/Guam						
6582365	4043988		Territory of Guam						
6582366	4043988		Guam - US Unincorporated Organized Territory						
6582367	4043988	ch	Guåhan		1	1			
6582368	4043988	ch	Islan Guåhan	1					
6582409	4043988	ch	Guahan				1		
7087178	4043988	af	Guam	1					
7087179	4043988	ak	Guam	1					
7087180	4043988	az	Quam	1					
7087181	4043988	bm	Gwam	1					
7087182	4043988	br	Guam	1					
7087183	4043988	bs	Guam	1					
7087184	4043988	ca	Guam	1					
7087185	4043988	ee	Guam nutome	1					
7087186	4043988	eu	Guam	1					
7087187	4043988	ff	Guwam	1					
7087188	4043988	fo	Guam	1					
7087189	4043988	gl	Guam	1					
7087190	4043988	gu	ગ્વામ	1					
7087191	4043988	ha	Gwam	1					
7087192	4043988	ki	Gwam	1					
7087193	4043988	kl	Guam	1					
7087194	4043988	kn	ಗುವಾಮ್	1					
7087195	4043988	ku	Guam	1					
7087196	4043988	lg	Gwamu	1					
7087197	4043988	ln	Gwamɛ	1					
7087198	4043988	lu	Ngwame	1					
7087199	4043988	mg	Guam	1					
7087200	4043988	ml	ഗ്വാം	1					
7087201	4043988	mr	गुआम	1					
7087202	4043988	my	ဂူအမ်	1					
7087203	4043988	nd	Guam	1					
7087204	4043988	ne	गुवाम	1					
7087205	4043988	or	ଗୁଆମ୍	1					
7087206	4043988	rm	Guam	1					
7087207	4043988	rn	Gwamu	1					
7087208	4043988	sg	Guâm	1					
7087209	4043988	sn	Guam	1					
7087210	4043988	so	Guaam	1					
7087211	4043988	sw	Guam	1					
7087212	4043988	ta	குவாம்	1					
7087213	4043988	te	గ్వామ్	1					
7087214	4043988	ti	ጉዋም	1					
7087215	4043988	to	Kuamu	1					
7087216	4043988	ur	گوام	1					
7087217	4043988	vi	Guam	1					
7087218	4043988	yo	Guamu	1					
7087219	4043988	zu	i-Guam	1					
8162641	4043988	iata	GUM						
10724877	4043988	link	http://id.loc.gov/authorities/names/n50000810						
16925744	4043988	zh-Hant	關島	1					
16928572	4043988	as	গুৱাম	1					
16928573	4043988	be	Гуам	1					
16928574	4043988	ce	Гуам	1					
16928575	4043988	dz	གུ་འམ་ མཚོ་གླིང	1					
16928576	4043988	fy	Guam	1					
16928577	4043988	gd	Guam	1					
16928578	4043988	hy	Գուամ	1					
16928579	4043988	ig	Guam	1					
16928580	4043988	jv	Guam	1					
16928581	4043988	kk	Гуам	1					
16928582	4043988	km	ហ្គាំ	1					
16928583	4043988	ks	گُوام	1					
16928584	4043988	ky	Гуам	1					
16928585	4043988	lb	Guam	1					
16928586	4043988	lo	ກວາມ	1					
16928587	4043988	mn	Гуам	1					
16928588	4043988	no	Guam	1					
16928589	4043988	pa	ਗੁਆਮ	1					
16928590	4043988	ps	ګوام	1					
16928591	4043988	qu	Guam	1					
16928592	4043988	sd	گوام	1					
16928593	4043988	si	ගුවාම්	1					
16928594	4043988	sq	Guam	1					
16928595	4043988	tg	Гуам	1					
16928596	4043988	tk	Guam	1					
16928597	4043988	tt	Гуам	1					
16928598	4043988	ug	گۇئام	1					
16928599	4043988	uz	Guam	1					
16928600	4043988	wo	Guwam	1					
16928601	4043988	yi	גוואַם	1					
8689635	4043993	link	https://en.wikipedia.org/wiki/Guam_Adventist_Academy						
12559127	4043993		Guam Mission Academy						
15237017	4043993	wkdt	Q5613407						
12367361	4043995		Guam Penitentiary						
12559140	4043996		United States Naval Cemetery						
11297911	4043997	link	https://en.wikipedia.org/wiki/Guam_Memorial_Hospital						
15409168	4043997	wkdt	Q16891909						
1886949	4043999	icao	PGUM						
1889565	4043999	iata	GUM						
5806034	4043999	link	https://en.wikipedia.org/wiki/Antonio_B._Won_Pat_International_Airport						
6634398	4043999	faac	GUM						
6634399	4043999		Guam International Airport						
9379543	4043999	ar	مطار أنتونيو بي وان بات الدولي						
9379544	4043999	fa	فرودگاه بین‌المللی انتونیو بی وان پت						
9379545	4043999	ja	グアム国際空港						
9379546	4043999	tg	Фурудгоҳи бин‌алмилалӣ онтуню бе уон пт						
9379547	4043999	ru	Гуам						
9379548	4043999	zh	安東尼奧·汪帕特國際機場						
11413211	4043999	it	Aeroporto Internazionale di Guam						
12621102	4043999		Antonio B Won Pat International Airport						
12626526	4043999		U.S. Naval Air Station Agana						
6633938	4044000		NASA Tracking Station MSFN GWM						
15213262	4044004	wkdt	Q25187705						
12596942	4044007		Hagatna Detention Facility						
12596946	4044007		Guam Detention Home						
12596929	4044011		Hagatna Channel						
12748855	4044011		Agana Channel						
1640083	4044012	es	Agaña						
1640084	4044012	pl	Hagåtña						
1640085	4044012	en	Hagåtña						
1640086	4044012	de	Hagåtña						
1640087	4044012	af	Hagåtña						
1640088	4044012	da	Hagåtña						
1640089	4044012	eo	Agano						
1640090	4044012	fi	Hagåtña						
1640091	4044012	gl	Agaña						
1640092	4044012	io	Agana						
1640093	4044012	ja	ハガニア						
1640094	4044012	ko	하갓냐						
1640095	4044012	sv	Hagåtña						
1640096	4044012	zh-CN	阿加尼亚						
1901824	4044012	fr	Hagåtña						
1901825	4044012	ca	Agana						
1901826	4044012	nl	Hagåtña						
1901827	4044012	pt	Hagåtña						
1901828	4044012	sk	Hagåtña						
1988495	4044012	it	Hagåtña						
1988496	4044012	no	Hagåtña						
1988497	4044012	ru	Хагатна						
2989183	4044012	link	https://en.wikipedia.org/wiki/Hag%C3%A5t%C3%B1a%2C_Guam						
3056886	4044012	link	https://ru.wikipedia.org/wiki/%D0%A5%D0%B0%D0%B3%D0%B0%D1%82%D0%BD%D0%B0						
6634119	4044012		Akashi - JP renamed WW2				1		
6634632	4044012		Agana -1998				1		
6634715	4044012	post	96910						
6634716	4044012	post	96932 PO BOX						
8717045	4044012	ar	هاغاتنيا						
8717046	4044012	az	Haqatna						
8717047	4044012	be	Вёска Аганья						
8717048	4044012	bg	Хагатна						
8717049	4044012	el	Αγκάνα						
8717050	4044012	fa	هاگاتنیا						
8717051	4044012	hy	Հագատնա						
8717052	4044012	ka	ჰაგატნა						
8717053	4044012	lt	Aganija						
8717054	4044012	mk	Хагатња						
8717055	4044012	mr	हेगात्न्या						
8717056	4044012	hbs	Hagatna						
8717057	4044012	sr	Хагатња						
8717058	4044012	th	ฮากาตญา						
8717059	4044012	uk	Хагатна						
8717060	4044012	ur	هاگاتنا						
8717061	4044012	zh	阿加尼亚						
11340309	4044012	kk	Хагатна						
11340310	4044012	ta	அகாத்ன						
12325077	4044012		Ville d'Agana						
12325078	4044012		Agadna						
12325079	4044012		Jagatna						
12367342	4044012		City of Ignacio de Agana						
12409754	4044012		Agania						
12409755	4044012		Hagadna						
12559096	4044012		Aganja						
12559116	4044012		City of Saint Ignacio de Agana						
12559117	4044012		Akashi						
12559118	4044012		Ciudad de San Ignacio de Agana						
12708527	4044012		Aguana						
12708528	4044012		San Ignacio de Agana *						
13774951	4044012	unlc	GUAGA						
12420287	4044013		Hagatna Central Park						
12718577	4044013		Agana Central Park						
12441799	4044015		Agana Shopping Center						
12606676	4044015		Hagatna Shopping Center						
15736690	4044015	wkdt	Q4691185						
16177047	4044015	link	https://en.wikipedia.org/wiki/Agana_Shopping_Center						
12606675	4044016		Agana Heights Elementary School						
12626517	4044016		Hagatna Heights Elementary School						
6960557	4044019		Agana Municipality				1		
8234403	4044019	link	https://en.wikipedia.org/wiki/Hag%C3%A5t%C3%B1a,_Guam						
8486983	4044019	en	Hagatna	1	1				
8486984	4044019		Agana						
12375963	4044019		Municipality of Hagatna						
15641591	4044020	wkdt	Q25187702						
12377732	4044021		Mount Llicho						
12420303	4044021		Ilicho Peak						
15893787	4044021	wkdt	Q25187701						
12335452	4044026		Harvest Baptist School						
15364025	4044026	wkdt	Q5676768						
16147297	4044026	link	https://en.wikipedia.org/wiki/Harvest_Christian_Academy_%28Guam%29						
12748859	4044028		Agat-Santa Rita School						
6582330	4044041	ch	Inalåhan						
7752394	4044041	link	https://en.wikipedia.org/wiki/Inarajan,_Guam						
8487000	4044041	en	Inarajan	1	1				
12335453	4044043		Inarajan High School						
15295906	4044045	wkdt	Q25187699						
12367355	4044046		Torres School						
6582487	4044047		US National Register of  Historic Places						
6634624	4044050		Jalaigai Point				1		
15540946	4044050	wkdt	Q25187698						
15397098	4044052	wkdt	Q25187697						
12639498	4044053		San Miguel Elementary School						
6634456	4044057		Governor Joseph F. Flores Beach Park						
12647960	4044057		Ypao Beach Park						
8071298	4044062	link	https://en.wikipedia.org/wiki/Mount_Jumullong_Manglo						
12367352	4044062		Mount Jumullung Manglo						
12409765	4044062		Humuong Manglo						
12512116	4044062		Mount Jumullong Manglo						
12512117	4044062		Jumulong Manglo Mountain						
12559130	4044062		Jumullong Manglo Mountain						
12596706	4044062		Humuyung Manglu						
12748873	4044062		Jumulong Manglo						
12748874	4044062		Jumuyong Manglo						
15667286	4044072	wkdt	Q25187696						
6634540	4044080		Senator Angel Leon Guerrero Santos Memorial Park						
7155087	4044087	link	https://en.wikipedia.org/wiki/Lockwood_Terrace%2C_Guam						
12559131	4044087		Lockwood Terrace Housing Area						
6634616	4044093		Tougouénè				1		
15368197	4044093	wkdt	Q25187694						
15842939	4044095	wkdt	Q25187693						
15531925	4044102	wkdt	Q25187692						
12325092	4044105		Ma`ina						
15624287	4044114	wkdt	Q25187690						
12442275	4044121		Mangilao Mayor's Baseball Field						
12621105	4044125		Maria Ulloa Elementary School						
6582551	4044132		Orote Naval Air Station WW2						
6582552	4044132		Sumay Airfield				1		
6582553	4044132		US National Register of Historic Places						
6582558	4044132		Orote Field						
6582559	4044132		Guam West Field						
16195998	4044132	link	https://en.wikipedia.org/wiki/Orote_Field						
15340276	4044133	wkdt	Q25187688						
12325101	4044134		Carmel School						
15501024	4044140	wkdt	Q25187686						
12523117	4044141		Malesso Catholic Cemetery						
6634560	4044142		WW2						
7139430	4044143	link	https://en.wikipedia.org/wiki/Micronesia_Mall						
12718599	4044143		Micronesia Mall Shopping Center						
15806870	4044143	wkdt	Q6120858						
12668086	4044144		Merizo Martyrs Memorial School						
6582505	4044145		US Natioanl Register of Historic Places						
12748878	4044145		Merizo School						
7752397	4044148	link	https://en.wikipedia.org/wiki/Mongmong-Toto-Maite,_Guam						
8487003	4044148		Mongmong-Toto-Maite	1	1				
8101101	4044150	link	https://en.wikipedia.org/wiki/Namo_River						
12502867	4044150		Ayuja River						
6634558	4044152		WW2						
12559132	4044153		Naval Communications Station Beach						
12668087	4044153		Tanguisson Beach						
15786233	4044153	wkdt	Q25187683						
15581817	4044154	wkdt	Q25187682						
15216791	4044155	wkdt	Q25187681						
15790300	4044395	wkdt	Q25187680						
12668101	4044411		Orote Power Plant						
6634432	4044419		Jonestown						
12325095	4044419		Oca						
12409756	4044420		Agat Junior High School						
6872116	4044422	link	https://en.wikipedia.org/wiki/Notre_Dame_High_School_%28Guam%29						
12442332	4044422		Notre Dame School						
12625168	4044897		P C Lujan Elementary School						
12748866	4044897		East Barrigada School						
6634567	4045146		Fleet Admiral Chester W. Nimitz Hill						
11287374	4045146	link	https://en.wikipedia.org/wiki/Nimitz_Hill						
12409767	4045146		Bundschu Ridge						
6634568	4045150		Fleet Admiral Chester W. Nimitz Park						
12512119	4045154		Y-Peca						
12748879	4045163		North Tipalao Housing Area						
7195295	4045165	link	https://en.wikipedia.org/wiki/Orote_Peninsula						
15682284	4045165	wkdt	Q5638702						
12748880	4045171		Ordot-Chalan Pago School						
6634297	4045174		Our Lady of Peace and Safe Journey Catholic Church						
12559133	4045175		Point Orote						
12596941	4045175		Cape San Carlos de Orote						
12708559	4045175		Cape Orote						
13641726	4045175	en	Orote Point				1		May 1987
13641727	4045175	link	https://en.wikipedia.org/wiki/Point_Udall_(Guam)						
15249316	4045175	wkdt	Q25187676						
8072764	4045185	link	https://en.wikipedia.org/wiki/Pago_River						
15671275	4045186	wkdt	Q25192834						
12502868	4045187		Pauliluc Creek						
16146943	4045187	link	https://en.wikipedia.org/wiki/Pauliluc_River						
7543665	4045190	link	https://en.wikipedia.org/wiki/Paseo_de_Susana						
15456304	4045193	wkdt	Q25192831						
8083624	4045194	link	https://en.wikipedia.org/wiki/Pati_Point						
1632561	6269450	es	Islas Marianas	1					
1632562	6269450	en	Mariana Islands	1					
1632563	6269450	en	the Marianas						
1632564	6269450	es	Marianas						
1632565	6269450	en	Ladrone Islands						
1632566	6269450	es	Islas de los Ladrones						
1632567	6269450	es	Islas de las Velas Latinas						
1632568	6269450	en	San Lazarus archipelago						
1632569	6269450	es	Jardines						
1632570	6269450		Prazeres						
1632571	6269450	es	Las Marianas						
1632572	6269450	eo	Marianoj						
13701192	6269450	sv	Marianerna	1					
13701193	6269450	sv	Tjuvöarna				1		
13701194	6269450	sv	Marianeröarna						
1963843	6302085		Marianskiy Zhelob						
1963845	6302085		Mariana-kaikō						
1963846	6302085	en	Marianas Trench						
1963847	6302085	ja	マリアナ海溝						
1963848	6302085	ja	まりあなかいこう						
2059084	6302085	et	Mariaani Süvik						
2059085	6302085	sv	Marianergraven						
2059086	6302085	fi	Mariaanien Hauta						
4662173	6302085	en	Mariana Trench						
4662174	6302085		Марианский Желоб						
6533429	6302085		Mariana Trench Marine National Monument - Trench Unit						
16489933	6302085	ru	Марианская впадина						
7533726	6477659	link	https://en.wikipedia.org/wiki/Hotel_Nikko_Guam						
13265289	6492755	link	https://www.hilton.com/en/hotels/gumhitw-hilton-guam-resort-and-spa/?WT.mc_id=zELWAKN0APAC1HI2DMH3LocalSearch4DGGenericx6GUMHITW						
12608792	7267913		Andersen Air Force Base CDP						
12608795	7267944		Nimitz Hill Annex CDP						
12475535	7267953		Santa Rosa CDP						
12763565	7267954		Sinajana CDP						
12338611	7267960		Tiyen						
12572508	7267960		Tillan						
12680356	7267960		Tiyan CDP						
12337919	7267962		Umatac CDP						
12680357	7267962		Unatac						
6634692	7268049	post	96913						
6634693	7268049	post	96923 PO BOX						
6877481	7268049	link	https://en.wikipedia.org/wiki/Mangilao%2C_Guam						
12337923	7268049		Manguuao						
12763568	7268049		Manguilao						
6499298	7269457	link	https://en.wikipedia.org/wiki/Andersen_Air_Force_Base						
6499445	7269457	iata	UAM	1	1				
6499470	7269457	icao	PGUA						
6634317	7269457	faac	UAM						
6634319	7269457		Brigadier General James Roy Andersen AFB						
7825230	7269457	en	Andersen Afb						
12380797	7269457		North Guam Air Force Base						
12380822	7269457		North Field						
12423207	7269457		Northwest Field						
12680794	7269457		Northwest Guam Air Force Base						
6634351	7269466		DoD NCS Naval Communication Station Finegayan				1		
8081472	7269471	link	https://en.wikipedia.org/wiki/Naval_Base_Guam						
6634344	7280473		Naval Communication Area Master Station - Western Pacific				1		
6634346	7280473		NavCams Westpac				1		
6634347	7280473		Naval Computer and Telecommunications Area Master Station						
6533418	7733172		Mariana Trench Marine National Monument - Vents Unit						
6533417	7733217		Mariana Trench Marine National Monument - Vents Unit						
6533428	7778679		Mariana Trench Marine National Monument - Trench Unit						
6634731	7778679		HMRG Hawaii Mapping Research Group						
7168935	7778679	link	https://en.wikipedia.org/wiki/HMRG_Deep						
6533423	7778733		Mariana Trench Marine National Monument - Vents Unit						
6533424	7778735		Toto - Southernmost Active Seamount						
6533427	7778741		Mariana Trench National Monument - Southwestern Limit						
6582461	7839072		USN Captain Henry Glass Breakwater - Guam Captor 1898						
6644542	7839072		Calalan Bank Breakwater						
6644543	7839073		Luminao Reef Breakwater						
6582451	7839085		Hagatna Marina						
6582452	7839085		Agana Boat Basin						
6582453	7839089		Boat Typhoon Hole						
13636315	7839096		Port of Guam						
6634192	7839102		Big Blue			1			
6582410	7839106		Ricardo J. Bordallo Governor's Complex						
6582414	7839107	es	Indias Orientales Espanolas						
6582415	7839107		Spanish East Indies						
6594227	7839107		European Discovery for Spain - Ferdinand Magellan 1921						
6582417	7839110		The Great Marianas Turkey Shot WW2			1			
6582418	7839111		Japanese Guam Invasion						
6582419	7839112		US Recapture of Guam						
6582420	7839112		Operation FORAGER Phase II WW2						
6582421	7839115		Emerging Izu-Bonin-Mariana Arc IBM						
6582422	7839115		Emerging Mariana Arc						
6582423	7839115		Intra-Oceanic Mariana Arc						
6633866	7839116		Two Old Volcanoes - Lower Guam North and Higher Guam South						
6582424	7839119		Guam - Largest Island of Micronesia						
6582425	7839120		Mariana Plate						
6582426	7839121	es	Islas de las Velas Latinas				1		
6582427	7839121	es	Islas de los Ladrones				1		
6582428	7839121		Jardines				1		
6582429	7839121		Prazeres				1		
6582430	7839121		San Lazarus Archipelago				1		
13265358	7839121	ko	괌						
6582444	7839158		Apra Harbormaster						
6634650	7839158		Yacht Clearance Point						
6634248	7839199	es	Puerto San Luis d'Apra				1		
6634249	7839199		PanAm Clipper Flying Boat Anchorage pre-WW2				1		
10389291	7839199	en	Guam Harbor				1		
6582457	7839200		US Navy Yard pre-WW2						
6582462	7839201		Pier K						
6634218	7839201		Pier Kilo						
6582470	7839267		Marine Captain Geary R. Bundschu Ridge WW2						
15464263	7839267	wkdt	Q25187645						
6582481	7839268		Sagon I Tolai Acho						
6582482	7839268		US National Register of Historic Places						
6582491	7839280		US National Register of Historic Places						
6582502	7839320		US National Register of Historic Places						
6582503	7839321		US National Register of Historic Places						
6582507	7839322		Ati						
6582508	7839322		Cetti Bay - US National Register of Historic Places						
6582515	7839326		Cable Station Ruins - US National Register of Historic Places						
6582516	7839326		Cable Liaisons 1903 - Midway and Manila						
6582517	7839326		Cable Liaisons 1906 - Bonin-Yokohama and Yap-Shanghai						
6634250	7839326		The Commercial Pacific Cable Company						
13653585	7839327	link	https://en.wikipedia.org/wiki/Atantano_Shrine						
13653586	7839327	wkdt	Q25187643						
6582520	7839330		US National Register of Historic Places						
6582521	7839330		Submarine stranded at Togcha Point Guam						
6634557	7839330		JP Navy Ko-Hyoteki (Target A) Hei Gata (Type C) Midget Submarine						
6582523	7839331		US National Register of Historic Places						
6582524	7839331		Gongna Beach Gun Emplacement and Pillbox						
6582527	7839333		Marine Corps Drive						
6582528	7839338		US National Register of Historic Places						
6582538	7839877		US National Register of Historic Places						
6582541	7839878		US National Register of Historic Places						
6582542	7839878		Ipao Pillbox I						
16171468	7839878	link	https://en.wikipedia.org/wiki/Ipao_Pillbox_I						
6582545	7839880		US National Register of Historic Places						
6582548	7839882		US National Register of Historic Places						
6582554	7839892		US National Register of Historic Places						
6582555	7839893		US National Register of Historic Places						
6582556	7839894		US National Register of Historic Places						
6634556	7839895		Orote Touch-and-go Training Runway						
6582557	7839896		US National Register of Historic Places						
6582560	7839902		US National Register of Historic Places						
6582564	7839903		US National Register of Historic Places						
6633924	7839903	ch	Kampanayun Malesso						
6582567	7839905		US National Register of Historic Places						
6582569	7839905		Last HQ of LtGen Hideyshi Obata WW2						
6582571	7839905		Last Organized JP Resistance on Guam WW2						
6582573	7839906		SMS Cormoran Scuttled 1917						
6582574	7839906		US National Register of Historic Places						
6582575	7839907		US National Register of Historic Places						
6582576	7839907		US Submarine Snapper Hit 1943						
6582577	7839907		Tokai Maru WW2 rests against Cormoran WW1						
6589792	7839935		US National Register of Historic Places						
16153457	7839935	link	https://en.wikipedia.org/wiki/South_Finegayan_Latte_Stone_Park						
6634355	7839942		USN South Finegayan Housing				1		
6594236	7839945		Father Diego Luis de Sanvitores martyred 1672						
6594237	7839945		San Vitores Martyrdom Site						
6594238	7839945		US National Register of Historic Places						
16136894	7839945	link	https://en.wikipedia.org/wiki/San_Vitores_Martyrdom_Site						
6589933	7839946		US National Register of Historic Places						
16163930	7839954	link	https://en.wikipedia.org/wiki/Umatac_Outdoor_Library						
6594234	7839955		Church Earthquake Destroyed 1902						
6594235	7839955		US National Register of Historic Places						
6594279	7839956		US National Register of Historic Places						
6594280	7839957		US Natioanl Register of Historic Places						
6594281	7839958		US National Register of Historic Places						
16149464	7839958	link	https://en.wikipedia.org/wiki/Spanish_Dikes						
6594286	7839959		US National Register of Historic Places						
6594287	7839959		Taelayag Tolai Acho						
6594288	7839960		Taleyfac Tolai Acho						
6594289	7839960		US National Register of Historic Places						
6594293	7839961		US National Register of Historic Places						
6594297	7839970		US National Register of Historic Places						
6594675	7839971		US National Register of Historic Places						
6594775	7839972		US National Register of Historic Places						
6594777	7839973		US National Register of Historic Places						
6624180	7856105		Course Designers Jack Nicklaus and Arnold Palmer						
8093079	7869844	link	https://en.wikipedia.org/wiki/Fena_Lake						
6633769	7869846		JP Army Sergeant Shoichi Yokoi - WW2 Holdout						
6633806	7869848		Salaglula Pools						
6633770	7869849		Old Chamorro Demonstration Village						
6634298	7869853		Holy Family Catholic Church						
6633783	7869873		South Guam Elementary-Middle School - DoD School				1		
6634190	7869873		USN Commander William C. McCool -  Space Shuttle Columbia Victim						
15503020	7869895	wkdt	Q25187623						
15440823	7869902	wkdt	Q25187622						
15795388	7869913	wkdt	Q25192815						
14857327	7869918	wkdt	Q25192809						
6633843	7870050		Inarjan - Home of Legendary Chief Gadao						
15204686	7870054	wkdt	Q25192795						
6633851	7870055		SW Mountain Chain						
6633849	7870056		SW Mountain Chain						
15571471	7870058	wkdt	Q25192788						
6633846	7870059		SW Mountain Chain						
15831025	7870059	wkdt	Q25192787						
6633863	7870118		frmr Okura Hutel						
6634651	7870212		Latte of Freedom						
6633869	7870214		US Fish and Wildlife Services						
2989181	7870217	link	https://en.wikipedia.org/wiki/Apra_Harbor						
6633915	7870223		Manengon Power Plant						
6633918	7870223		Manenggon Power Plant						
6633876	7870224		TEMES Plant - Taiwan Electrical and Mechanical Engineering Service						
6633916	7870226		Cabras Piti Tanguisson Plants Base Load - others Peak Load						
16170919	7870383	link	https://en.wikipedia.org/wiki/Ajayan_River						
6633933	7870392		LORAN Chain Saipan-Cocos-Ulithi						
6633934	7870420		LORAN Chain Saipan-Orote-Yap						
15769365	7870491	wkdt	Q25192769						
6633951	7870499		CDAA or Wullenweber Direction Finder						
6633967	7870565		frmr Accion Hotel						
6633968	7870565		The Blessed Diego Luis de San Vitores Catholic Theological Institute for Oceania						
15594851	7870565	wkdt	Q25192765						
16194022	7870568	link	https://en.wikipedia.org/wiki/Gadao%27s_Cave						
6633971	7870574		False Site - Landing planned at Ylig Bay						
15502154	7870625	wkdt	Q25192754						
15325032	7870683	wkdt	Q25192749						
6634559	7870687		WW2						
14907637	7870734	wkdt	Q25192743						
6634201	7870737		PanAm Small Seaplane Ramp and Station Facilities						
6634202	7870737		PanAm Transpacific Flights San Francisco-Honolulu-Midway-Wake-Guam-Manila-Hong Kong						
6634212	7870744		Wharf Lima						
6634213	7870745		Wharf Mike						
6634214	7870746		Wharf November						
6634215	7870747		Wharf Oscar						
6634216	7870748		Wharf Papa						
6634217	7870749		Wharf Quebec						
7121909	7870771	link	https://en.wikipedia.org/wiki/Joint_Region_Marianas						
15221007	7870773	wkdt	Q25192727						
6634251	7870775		First Hotel on Guam						
15790563	7870777	wkdt	Q25192725						
15274615	7870779	wkdt	Q25192721						
6634252	7870806		Admiral Raymond A Spruance Drive						
6634341	7871063		Pohnpei United Church of Christ						
7494162	7871068	link	https://en.wikipedia.org/wiki/St._Thomas_Aquinas_Catholic_High_School_%28Guam%29						
6634620	7871076		Sassayan Point				1		
15676140	7871076	wkdt	Q25192687						
15268970	7871077	wkdt	Q25192685						
6634621	7871220		Sassayan				1		
6634318	7871225		Arc Light - Vietnam War B-52 Bombers						
6634321	7871238		FAA US Federal Aviation Administration Radar						
15492148	7871239	wkdt	Q25192659						
6634338	7871327		Ghyben-Herzberg Lens Wells						
6634339	7871331		Smithbridge International Brisbane-Australia						
6634340	7871331		Rocky Mountain Precast						
6634453	7871332		Tanguisson CLS Cable Landing Station						
6634345	7871353		GRGT Guam Remote Ground Terminal						
6634352	7871379		MRC Worldwide Communication Test Range						
6634353	7871379		NRL Naval Research Laboratory						
6634354	7871379		MRC Spacecraft Calibration Facility						
11293351	7871387	link	https://en.wikipedia.org/wiki/Okkodo_High_School						
15597352	7871387	wkdt	Q7082070						
6634396	7871460		Construction Professionals School						
6634397	7871462		NOAA US National Oceanic and Atmospheric Administration						
6634430	7873829		Guam Hilton Hotel Second Wedding Chapel						
6634431	7873830		New Hilton Hotel Wedding Chapel						
6634452	7873856		frmr Harmon Airbase						
6634454	7873857		Tumon Bay CLS Cable Landing Station						
6634455	7873859		Piti CLS Cable Landing Station						
6634707	7873866	post	96910						
8351398	7873866	link	https://en.wikipedia.org/wiki/Mongmong-Toto-Maite,_Guam						
13774954	7873866	unlc	GUGUA						
15494902	7873956	wkdt	Q25192626						
7536100	7873960	link	https://en.wikipedia.org/wiki/District_Court_of_Guam						
15361441	7873966	wkdt	Q25192622						
6634537	7874005		Elks Lodge						
6634538	7874006		Triangle Park			1			
6634630	7874008		Akashi WW2				1		
6634631	7874008		Agana -1998				1		
6634717	7874008	post	96910						
6634718	7874008	post	96932 PO BOX						
13774956	7874008	unlc	GUHGT						
15615527	7874011	wkdt	Q25192615						
6634542	7874012		US National Register of Historic Places						
6634543	7874013		Korean B747 Seoul-Guam Crash - 228 Killed - 26 Survivors						
6634563	7874023		WW2						
6634674	7874023		First Park Superintendent Anthropologist Thomas Stell Newman						
6634565	7874053		WW2						
6634566	7874054		WW2						
6634592	7874135		First Chamorro Priest Padre Palomo						
6634640	7874136	es	Casa Gobierno				1		
6634611	7874194		Piti Bomb Holes are Collapsed Coral Reef Caves						
6634629	7874219		JP Reembarkment to Agat Landing WW2						
6634638	7874239		Litekyan						
6634642	7874241		NMCB Naval Mobile Construction Battalion						
6634643	7874241		NCF US Naval Construction Force						
6634652	7874241		CAT Civil Action Team HQ West Pacific						
6634648	7874277		Apurguan						
7181110	7874277	link	https://en.wikipedia.org/wiki/Apurguan						
15422023	7874277	wkdt	Q4782313						
6634714	7874393	post	96910						
6883274	7874393	link	https://en.wikipedia.org/wiki/Asan%2C_Guam						
2989155	7874631	link	https://en.wikipedia.org/wiki/Tamuning%2C_Guam						
6634705	7874631	post	96913						
6634706	7874631	post	96931 PO BOX						
11420725	7874631	ch	Tamuneng						
11420726	7874631	fa	تامونینگ						
11420727	7874631	ja	タムニン						
11420728	7874631	ko	타무닝						
11420729	7874631	ur	تامونینگ، گوام						
11420730	7874631	ru	Тамунинг						
11420731	7874631	zh	塔穆宁						
6634721	7874633		3rd JP Airfield then Depot Field then Harmon Field						
10224673	9862225	en	Port Apra				1		
10389292	9862225	en	Guam Harbor				1		
11775334	9862225	en	Port San Luis D'Apra				1		
11775335	9862225	es	San Luis d'Apra				1		
