1454684	3575076		Zion Village						
1454685	3575076		Zion Hill Village						
1454686	3575076		Zion Hill						
4307687	3575076		Zion						
1454687	3575077		Zetland Estate						
1454688	3575077		Zetland						
4307688	3575077		Zetlands Estate						
1454689	3575079		Black River						
1454690	3575079		Wingfield River						
4307689	3575079		Wingfields River						
16949145	3575079		Wingfields						
1454691	3575081		Wingfield Estate						
4307690	3575081		Wingfield Manor						
13701301	3575083		Willetts Gut						
13701302	3575083		Willets Gut						
1454692	3575084		Willitts Gut						
4307691	3575084		Willetts Gut						
13701303	3575084		Willits Gut						
1454693	3575085		Willet						
1454694	3575085		Willets						
4307692	3575085		Willett’s Estate						
1454695	3575089		Whitehall						
4307693	3575089		Whitehall Estate						
1454696	3575096		West Farm						
4307694	3575096		West Farm Estate						
15232133	3575098	wkdt	Q27223365						
15958994	3575098		The Weir						
1454697	3575100		Webbes						
4307695	3575100		Webb’s Estate						
1454698	3575102		Ward Estate						
1454699	3575102		Wards						
4307696	3575102		Ward						
1454700	3575103		Vervine						
4307697	3575103		Vervain Estate						
1454701	3575104		Middle Mountain						
4307698	3575104		Verchilds Mountain						
1454702	3575105		Verchild						
1454703	3575105		Verchild’s Estate						
4307699	3575105		Verchild’s						
1454704	3575107		Bombell						
1454705	3575107		Vambelles						
4307700	3575107		Vambelle						
1454706	3575108		Mansion						
4307701	3575108		Upper Mansion						
1454707	3575110		Upper Canada						
4307702	3575110		Upper Canada Estate						
1454708	3575111		Upper Boreo						
1454709	3575111		Upper Bourryau						
4307703	3575111		Upper Bourryeau						
2185663	3575114		Trinity Palmetto Point	1	1				
2986098	3575114	link	https://en.wikipedia.org/wiki/Trinity_Palmetto_Point_Parish						
3058172	3575114	link	https://ru.wikipedia.org/wiki/%D0%A2%D1%80%D0%B8%D0%BD%D0%B8%D1%82%D0%B8-%D0%9F%D0%B0%D0%BB%D0%BC%D0%B5%D1%82%D1%82%D0%BE-%D0%9F%D0%BE%D0%B9%D0%BD%D1%82						
11761626	3575114	fr	Trinity Palmetto Point						
8331713	3575115	link	https://en.wikipedia.org/wiki/Palmetto_Point						
1454710	3575116		Trant						
4307704	3575116		Trants						
1454711	3575120		Saint Thomas Fort						
4307705	3575120		Fort Thomas						
1454712	3575121		Walk						
1454713	3575121		Walks						
4307706	3575121		The Walk						
1454714	3575122		Therould’s Estate						
4307707	3575122		Theroulds						
1454715	3575126		Tabernacle Village						
2986099	3575126	link	https://en.wikipedia.org/wiki/Tabernacle%2C_Saint_Kitts_and_Nevis						
4307708	3575126		Tabernacle						
1454716	3575131		Stony Grove						
1454717	3575131		Stoney Grove						
4307709	3575131		Stony Grove Estate						
1454718	3575132		Stone Fort						
4307710	3575132		Stone Fort Estate						
1454719	3575133		Stones Fort						
4307711	3575133		Stone Fort						
1454720	3575135		Stapleton						
4307712	3575135		Stapleton Estate						
1454721	3575136		Stapleton Village						
4307713	3575136		Stapleton						
1454722	3575138		Spring Hill Estate						
4307714	3575138		Spring Hill						
1454723	3575139		Spooners						
4307715	3575139		Spooners Estate						
16829326	3575140		South Olivees River						
16829327	3575140		South Olivees						
1454724	3575141		Friars Bay						
1454725	3575141		South Friar Bay						
4307716	3575141		South Friar’s Bay						
7032709	3575141	link	https://en.wikipedia.org/wiki/South_Friar%27s_Bay						
1454726	3575142		South East Ridge						
4307717	3575142		South East Range						
1454727	3575146		Sir Gillies						
4307718	3575146		Sir Gillies Estate						
1454728	3575147		Simmonds						
4307719	3575147		Simmonds Estate						
1454729	3575149		Sheriffs Village						
4307720	3575149		Sherriffs						
1454730	3575150		Shaw						
4307721	3575150		Shaws						
1454731	3575152		Shadwell						
4307722	3575152		Shadwell Estate						
1454732	3575156		Sandy Point Village						
1454733	3575156		Sandy Point						
2986100	3575156	link	https://en.wikipedia.org/wiki/Sandy_Point_Town						
3056503	3575156	link	https://ru.wikipedia.org/wiki/%D0%A1%D1%8D%D0%BD%D0%B4%D0%B8-%D0%9F%D0%BE%D0%B9%D0%BD%D1%82-%D0%A2%D0%B0%D1%83%D0%BD						
4307723	3575156		Sandy Point Town						
1454734	3575158		Sand Hill Bay						
4307724	3575158		Sandy Hill Bay						
1454735	3575161		Briscoe						
1454736	3575161		Salt Pond						
4307725	3575161		Salt Pond Estate						
2185661	3575164		Saint Thomas Middle Island	1	1				
2986101	3575164	link	https://en.wikipedia.org/wiki/Saint_Thomas_Middle_Island_Parish						
3058173	3575164	link	https://ru.wikipedia.org/wiki/%D0%A1%D0%B5%D0%BD%D1%82-%D0%A2%D0%BE%D0%BC%D0%B0%D1%81-%D0%9C%D0%B8%D0%B4%D0%BB-%D0%90%D0%B9%D0%BB%D0%B5%D0%BD%D0%B4						
11761625	3575164	fr	Saint-Thomas Middle Island						
11991664	3575164	en	Saint Thomas Middle Island Parish						
11991665	3575164	en	Saint Thomas Middle Island						
11991666	3575164	en	Middle Island		1				
14848098	3575164	wkdt	Q1752101						
16766881	3575164	en	St. Thomas Middle Island						
16766882	3575164	en	St. Thomas Middle Island Parish						
2185659	3575165		Saint Thomas Lowland	1	1				
2986102	3575165	link	https://en.wikipedia.org/wiki/Saint_Thomas_Lowland_Parish						
3056504	3575165	link	https://ru.wikipedia.org/wiki/%D0%A1%D0%B5%D0%BD%D1%82-%D0%A2%D0%BE%D0%BC%D0%B0%D1%81-%D0%9B%D0%BE%D0%B2%D0%BB%D0%B5%D0%BD%D0%B4						
11761624	3575165	fr	Saint-Thomas Lowland						
2185657	3575168		Saint Peter Basseterre	1	1				
2986103	3575168	link	https://en.wikipedia.org/wiki/Saint_Peter_Basseterre_Parish						
3056505	3575168	link	https://ru.wikipedia.org/wiki/%D0%A1%D0%B5%D0%BD%D1%82-%D0%9F%D0%B5%D1%82%D0%B5%D1%80-%D0%91%D0%B0%D1%81%D1%82%D0%B5%D1%80						
11761623	3575168	fr	Saint-Peter Basseterre						
1454737	3575170		Saint Paul’s Village						
4307726	3575170		Saint Paul’s						
8331113	3575170	link	https://en.wikipedia.org/wiki/Saint_Paul_Capisterre_Village						
11761630	3575170	fr	Saint Paul's						
2185655	3575171		Saint Paul Charlestown	1	1				
2986104	3575171	link	https://en.wikipedia.org/wiki/Saint_Paul_Charlestown_Parish						
3056506	3575171	link	https://ru.wikipedia.org/wiki/%D0%A1%D0%B5%D0%BD%D1%82-%D0%9F%D0%B0%D1%83%D0%BB-%D0%A7%D0%B0%D1%80%D0%BB%D1%81%D1%82%D0%B0%D1%83%D0%BD						
11761622	3575171	fr	Saint-Paul Charlestown						
1454738	3575172		Saint Paul Capisterre						
2185579	3575172		Saint Paul Capesterre	1	1				
2986105	3575172	link	https://en.wikipedia.org/wiki/Saint_Paul_Capisterre_Parish						
3056507	3575172	link	https://ru.wikipedia.org/wiki/%D0%A1%D0%B5%D0%BD%D1%82-%D0%9F%D0%B0%D1%83%D0%BB-%D0%9A%D0%B0%D0%BF%D0%B5%D1%81%D1%82%D0%B5%D1%80						
11761621	3575172	fr	Saint-Paul Capisterre						
2185581	3575173		Saint Mary Cayon	1	1				
2986106	3575173	link	https://en.wikipedia.org/wiki/Saint_Mary_Cayon_Parish						
3056508	3575173	link	https://ru.wikipedia.org/wiki/%D0%A1%D0%B5%D0%BD%D1%82-%D0%9C%D0%B5%D1%80%D0%B8-%D0%9A%D0%B0%D0%B9%D0%BE%D0%BD						
11761620	3575173	fr	Saint-Mary Cayon						
1454741	3575174		Saint Christopher and Nevis						
1454742	3575174		Federation of Saint Christopher and Nevis						
1454744	3575174		Presidency of Saint Kitts-Nevis						
1454745	3575174		State of Saint Christopher-Nevis						
1454746	3575174		Presidency of Saint Christopher-Nevis						
1562784	3575174	af	Sint Kitts en Nevis	1					
1562785	3575174	am	ቅዱስ ኪትስ እና ኔቪስ	1					
1562786	3575174	ar	سانت كيتس ونيفيس	1					
1562787	3575174	bg	Сейнт Китс и Невис	1					
1562788	3575174	cs	Svatý Kitts a Nevis						
1562789	3575174	cy	Saint Kitts a Nevis	1					
1562790	3575174	da	Saint Kitts og Nevis	1					
1562791	3575174	de	St. Kitts und Nevis	1					
1562792	3575174	el	Σαιντ Κιτς και Νέβις						
1562793	3575174	en	St. Kitts & Nevis						
1562794	3575174	eo	Sent-Kristofo kaj Neviso	1					
1562795	3575174	es	San Cristóbal y Nieves	1					
1562796	3575174	et	Saint Kitts ja Nevis	1					
1562797	3575174	eu	Saint Kitts eta Nevis	1					
1562798	3575174	fa	سنت کیتس و نویس	1					
1562799	3575174	fi	Saint Kitts ja Nevis	1					
1562800	3575174	fo	St. Kitts & Nevis	1					
1562801	3575174	fr	Saint-Kitts-et-Nevis						
1562802	3575174	ga	San Críostóir-Nimheas	1					
1562803	3575174	he	סנט קיטס ונוויס	1					
1562804	3575174	hi	सेंट किट्स और नेविस	1					
1562805	3575174	hr	Sveti Kristofor i Nevis	1					
1562806	3575174	hu	Saint Kitts és Nevis	1					
1562807	3575174	hy	Սենթ Քիտս և Նևիս	1					
1562808	3575174	id	Saint Kitts dan Nevis	1					
1562809	3575174	is	Sankti Kristófer og Nevis						
1562810	3575174	it	Saint Kitts e Nevis	1					
1562811	3575174	ja	セントクリストファー・ネイビス						
1562812	3575174	ka	სენტ-კიტსი და ნევისი	1					
1562813	3575174	ko	세인트크리스토퍼 네비스						
1562814	3575174	lt	Sent Kristoferis ir Nevis						
1562815	3575174	lv	Sentkitsa un Nevisa	1					
1562816	3575174	mk	Свети Китс и Невис	1					
1562817	3575174	ms	Saint Kitts dan Nevis	1					
1562818	3575174	mt	Saint Kitts u Nevis	1					
1562819	3575174	nb	St. Kitts og Nevis	1					
1562820	3575174	nl	Saint Kitts en Nevis	1					
1562821	3575174	nn	St. Christopher og Nevis						
1562822	3575174	pl	Saint Kitts i Nevis	1					
1562823	3575174	pt	São Cristovão e Nevis						
1562824	3575174	ro	Saint Kitts și Nevis	1					
1562825	3575174	ru	Сент-Киттс и Невис						
1562826	3575174	sk	Saint Kitts a Nevis						
1562827	3575174	sl	Saint Kitts in Nevis	1					
1562828	3575174	sq	Shën-Kits dhe Nevis	1					
1562829	3575174	sr	Сент Китс и Невис	1					
1562830	3575174	sv	S:t Kitts och Nevis	1					
1562831	3575174	sw	St. Kitts na Nevis	1					
1562832	3575174	th	เซนต์คิตส์และเนวิส	1					
1562833	3575174	tr	Saint Kitts ve Nevis	1					
1562834	3575174	uk	Сент-Кітс і Невіс	1					
1562835	3575174	vi	Xan-kít và Nê-vi						
1562836	3575174	zh	圣基茨和尼维斯	1					
1619799	3575174	ca	Saint Kitts i Nevis						
1619800	3575174	cs	Svatý Kryštof a Nevis	1					
1619801	3575174	eo	Sankta-Kito kaj Neviso						
1619802	3575174	fr	Saint-Christophe-et-Niévès	1					
1619803	3575174	gl	Saint Kitts e Nevis	1					
1619804	3575174	io	Santa Kitts e Nevis						
1619805	3575174	ko	세인트키츠 네비스	1					
1619806	3575174	kw	Sen Kitts ha Nevis						
1619807	3575174	lt	Sent Kitsas ir Nevis	1					
1619808	3575174	nds	St. Kitts un Nevis						
1619809	3575174	nn	Saint Kitts og Nevis						
1619810	3575174	no	Saint Kitts og Nevis	1					
1619811	3575174	oc	Sant Cristòl e Nieves						
1619812	3575174	pt	Saint Kitts e Nevis						
1619813	3575174	ro	Sfântul Kitts și Nevis						
1619814	3575174	sa	सेंट किट्						
1619815	3575174	sk	Svätý Krištof						
1619816	3575174	sq	Shën Kits dhe Nevis						
1619817	3575174	sr	Свети Китс и Невис						
1619818	3575174	sv	Saint Christopher och Nevis						
1619819	3575174	th	ประเทศเซนต์คิตส์และเนวิส						
1619820	3575174	tl	San Cristobal at Niyebes						
1619821	3575174	zh	聖克里斯多福與尼維斯						
1633124	3575174	es	San Cristóbal y Nevis						
1633125	3575174	an	Sant Cristofo y Nieus						
1633126	3575174	ru	Сент-Китс и Невис	1					
1633127	3575174	sk	Svätý Krištof a Nevis	1					
1895431	3575174	bg	Сент Китс и Невис						
1895432	3575174	bs	Sveti Kristofor i Nevis						
1895433	3575174	ps	سېنټ کېټس او نېويس						
1980800	3575174	el	Άγιος Χριστόφορος και Νέβις						
1980801	3575174	frp	Sant-Cretôflle-et-Nievès						
1980802	3575174	ms	Santo Kitts dan Nevis						
1980803	3575174	oc	Sant Cristòl e Nevis						
1980804	3575174	pms	Saint Kitts e Nevis						
1980805	3575174	pms	San Cristòfor e Névis						
1980806	3575174	pt	São Cristóvão e Nevis						
1980807	3575174	hbs	Sveti Kristofor i Nevis						
1980808	3575174	vo	Sankiteän e Neviseän						
2188468	3575174	sv	Saint Kitts och Nevis	1					
2421733	3575174	be	Сент-Кітс і Невіс	1					
2421734	3575174	bg	Сент Китс	1					
2421735	3575174	bn	সেন্ট কিটস ও নেভিস	1					
2421736	3575174	bo	སེནྚ། ཀིཊྚས྄། དང༌། ནེ་བིས྄།	1					
2421737	3575174	cs	Sv. Kitts a Nevis	1					
2421738	3575174	de	Föderation St. Kitts und Nevis						
2421739	3575174	el	Άγιος Κιτς και Νέβις	1					
2421740	3575174	fa	سینت کیتس و نویس	1					
2421741	3575174	gl	San Cristovo e Nevis	1					
2421742	3575174	he	סיינט קיטס ונביס	1					
2421743	3575174	hi	सेन्ट किट्स और नेविस	1					
2421744	3575174	hr	Sv. Kristofor i Nevis	1					
2421745	3575174	ia	Sancte Christophoro e Nevis	1					
2421746	3575174	id	Santa Kitts dan Nevis	1					
2421747	3575174	is	Saint Kitts og Nevis	1					
2421748	3575174	ja	セントクリストファー・ネビス	1					
2421749	3575174	ko	세인트 키츠 네비스	1					
2421750	3575174	nl	St. Kitts en Nevis	1					
2421751	3575174	pt	São Cristóvão e Névis	1					
2421752	3575174	ro	Sain Kitts și Nevis	1					
2421753	3575174	se	Saint Kitts ja Nevis	1					
2421754	3575174	sk	Sv. Kitts a Nevis	1					
2421755	3575174	sv	St Kitts och Nevis		1				
2421756	3575174	uk	Сент Кітс і Невіс	1					
2421757	3575174	ur	سینٹ کٹس اور نیویس	1					
2421758	3575174	vi	Xanh-kít và Nê-vi (Saint Kitts và Nevis)	1					
2920283	3575174	link	https://en.wikipedia.org/wiki/Saint_Kitts_and_Nevis						
3056509	3575174	link	https://ru.wikipedia.org/wiki/%D0%A1%D0%B5%D0%BD%D1%82-%D0%9A%D0%B8%D1%82%D1%81_%D0%B8_%D0%9D%D0%B5%D0%B2%D0%B8%D1%81						
4307727	3575174		Federation of Saint Kitts and Nevis						
7087984	3575174	ak	Saint Kitts ne Nɛves	1					
7087985	3575174	az	Sent-Kits və Nevis	1					
7087986	3575174	bm	Kristɔfo-Senu-ni-Ɲevɛs	1					
7087987	3575174	br	Saint Kitts ha Nevis	1					
7087988	3575174	bs	Sveti Kits i Nevis	1					
7087989	3575174	ca	Saint Christopher i Nevis	1					
7087990	3575174	ee	Saint Kitis kple Nevis nutome	1					
7087991	3575174	ff	Sent Kits e Newis	1					
7087992	3575174	gu	સેંટ કિટ્સ અને નેવિસ	1					
7087993	3575174	ha	San Kiti Da Nebis	1					
7087994	3575174	ki	Santakitzi na Nevis	1					
7087995	3575174	kl	Saint Kitts aamma Nevis	1					
7087996	3575174	kn	ಸೇಂಟ್ ಕಿಟ್ಸ್ ಮತ್ತು ನೆವಿಸ್	1					
7087997	3575174	ku	Saint Kitts û Nevîs	1					
7087998	3575174	lg	Senti Kitisi ne Nevisi	1					
7087999	3575174	ln	Sántu krístofe mpé Nevɛ̀s	1					
7088000	3575174	lu	Santu krístofe ne Neves	1					
7088001	3575174	mg	Saint-Christophe-et-Niévès	1					
7088002	3575174	ml	സെന്റ് കിറ്റ്‌സും നെവിസും	1					
7088003	3575174	mr	सेंट किट्स आणि नेव्हिस	1					
7088004	3575174	nd	Saint Kitts and Nevis	1					
7088005	3575174	ne	सेन्ट किट्स र नेभिस	1					
7088006	3575174	or	ସେଣ୍ଟ କିଟସ୍‌ ଏବଂ ନେଭିସ୍‌	1					
7088007	3575174	rm	Saint Kitts e Nevis	1					
7088008	3575174	rn	Sekitsi na Nevisi	1					
7088009	3575174	sg	Sên-Krïstôfo-na-Nevîsi	1					
7088010	3575174	sn	Saint Kitts and Nevis	1					
7088011	3575174	so	St. Kitts & Nefis	1					
7088012	3575174	ta	செயின்ட் கிட்ஸ் & நெவிஸ்	1					
7088013	3575174	te	సెయింట్ కిట్స్ మరియు నెవిస్	1					
7088014	3575174	ti	ቅዱስ ኪትስን ኔቪስን	1					
7088015	3575174	to	Sā Kitisi mo Nevisi	1					
7088016	3575174	yo	Kiiti ati Neefi	1					
7088017	3575174	zu	i-Saint Kitts ne-Nevis	1					
8046202	3575174		Saint Kitts and Nevis						
13288306	3575174	en	St Kitts and Nevis	1					
13785784	3575174	unlc	KNSKB						
16766506	3575174	en	St. Kitts and Nevis						
16925772	3575174	zh-Hant	聖克里斯多福及尼維斯	1					
16929179	3575174	as	ছেইণ্ট কিটছ আৰু নেভিছ	1					
16929180	3575174	ce	Сент-Китс а, Невис а	1					
16929181	3575174	dz	སེནཊ་ ཀིཊས་ དང་ ནེ་བིས	1					
16929182	3575174	fy	Saint Kitts en Nevis	1					
16929183	3575174	gd	Naomh Crìstean is Nibheis	1					
16929184	3575174	ig	Kitts na Nevis Dị nsọ	1					
16929185	3575174	jv	Saint Kits lan Nèvis	1					
16929186	3575174	kk	Сент-Китс және Невис	1					
16929187	3575174	km	សាំង​គីត និង ណេវីស	1					
16929188	3575174	ks	سینٹ کِٹَس تہٕ نیوِس	1					
16929189	3575174	ky	Сент-Китс жана Невис	1					
16929190	3575174	lb	St. Kitts an Nevis	1					
16929191	3575174	lo	ເຊນ ຄິດ ແລະ ເນວິສ	1					
16929192	3575174	mn	Сент-Киттс ба Невис	1					
16929193	3575174	my	စိန့်ကစ်နှင့်နီဗီစ်	1					
16929194	3575174	pa	ਸੇਂਟ ਕਿਟਸ ਐਂਡ ਨੇਵਿਸ	1					
16929195	3575174	ps	سینټ کټس او نیویس	1					
16929196	3575174	qu	San Cristóbal y Nieves	1					
16929197	3575174	sd	سينٽ ڪٽس و نيوس	1					
16929198	3575174	si	ශාන්ත කිට්ස් සහ නේවිස්	1					
16929199	3575174	tg	Сент-Китс ва Невис	1					
16929200	3575174	tk	Sent-Kits we Newis	1					
16929201	3575174	tt	Сент-Китс һәм Невис	1					
16929202	3575174	ug	ساينت كىتىس ۋە نېۋىس	1					
16929203	3575174	uz	Sent-Kits va Nevis	1					
16929204	3575174	wo	Saŋ Kits ak Newis	1					
1454747	3575175		Parish of Saint John Brown Hill						
2185580	3575175		Saint John Figtree	1	1				
2986107	3575175	link	https://en.wikipedia.org/wiki/Saint_John_Figtree_Parish						
3056511	3575175	link	https://ru.wikipedia.org/wiki/%D0%A1%D0%B5%D0%BD%D1%82-%D0%94%D0%B6%D0%BE%D0%BD-%D0%A4%D0%B8%D0%B3%D1%82%D1%80%D0%B8						
11761619	3575175	fr	Saint-John Figtree						
1454748	3575176		Saint John Capisterre						
2185583	3575176		Saint John Capesterre	1	1				
2986108	3575176	link	https://en.wikipedia.org/wiki/Saint_John_Capisterre_Parish						
3056512	3575176	link	https://ru.wikipedia.org/wiki/%D0%A1%D0%B5%D0%BD%D1%82-%D0%94%D0%B6%D0%BE%D0%BD-%D0%9A%D0%B0%D0%BF%D0%B5%D1%81%D1%82%D0%B5%D1%80						
11761618	3575176	fr	Saint-John Capisterre						
2185582	3575177		Saint James Windwa	1	1				
2986109	3575177	link	https://en.wikipedia.org/wiki/Saint_James_Windward_Parish						
3056513	3575177	link	https://ru.wikipedia.org/wiki/%D0%A1%D0%B5%D0%BD%D1%82-%D0%94%D0%B6%D0%B5%D0%B9%D0%BC%D1%81-%D0%92%D0%B8%D0%BD%D0%B2%D0%B0%D1%80%D0%B4						
5650060	3575177		Saint James Windward						
11761617	3575177	fr	Saint-James Windward						
2185573	3575179		Saint George Gingerland	1	1				
5701828	3575179	link	https://en.wikipedia.org/wiki/Saint_George_Gingerland_Parish						
11761616	3575179	fr	Saint-George Gingerland						
2185574	3575180		Saint George Basseterre	1	1				
2986110	3575180	link	https://en.wikipedia.org/wiki/Saint_George_Basseterre_Parish						
3056514	3575180	link	https://ru.wikipedia.org/wiki/%D0%A1%D0%B5%D0%BD%D1%82-%D0%94%D0%B6%D0%BE%D1%80%D0%B4%D0%B6-%D0%91%D0%B0%D1%81%D1%82%D0%B5%D1%80						
11761615	3575180	fr	Saint-George Basseterre						
2063	3575181		Saint Kitts						
1647054	3575181	en	Saint Kitts						
1647055	3575181	pl	Saint Kitts						
1647056	3575181	de	St. Kitts						
1647057	3575181	fi	Saint Kitts						
1647058	3575181	fr	île Saint-Christophe						
1647059	3575181	fr	Saint-Christophe						
1647060	3575181	ja	セントクリストファー島						
1647061	3575181	lt	Sent Kitsas						
1647062	3575181	nl	Saint Kitts						
1647063	3575181	pt	Saint Kitts						
1909751	3575181	es	Isla de San Cristóbal						
1909752	3575181	he	סנט קיטס						
1996565	3575181	pt	Ilha de São Cristóvão						
1996566	3575181	ru	Сент-Китс						
2986111	3575181	link	https://en.wikipedia.org/wiki/Saint_Kitts						
3056515	3575181	link	https://ru.wikipedia.org/wiki/%D0%A1%D0%B5%D0%BD%D1%82-%D0%9A%D0%B8%D1%82%D1%81						
4307728	3575181		Saint Christopher				1		
11665071	3575181	iata	SKB						
16766539	3575181	en	St. Kitts						
1454749	3575182		Saint Anthonys Peaks						
4307729	3575182		Saint Anthony Peaks						
2185575	3575183		Saint Anne Sandy Point	1	1				
5701824	3575183	link	https://en.wikipedia.org/wiki/Saint_Anne_Sandy_Point_Parish						
11761614	3575183	fr	Saint-Anne Sandy Point						
1454750	3575184		Sadler						
1454751	3575184		Sadlers						
4307730	3575184		Sadler’s Land Settlement						
1454752	3575186		Saddlers’ Village						
1454753	3575186		Sadlers Village						
4307731	3575186		Sadlers						
7155095	3575186	link	https://en.wikipedia.org/wiki/Saddlers						
5902755	3575187	link	https://en.wikipedia.org/wiki/Saddle_Hill_%28Saint_Kitts_and_Nevis%29						
6128577	3575187		Saddle Hill						
1454754	3575188		Russell’s Rest Estate						
4307732	3575188		Russells Rest						
1454755	3575191		Romney						
4307733	3575191		Romneys						
1454756	3575194		Richmond Lodge						
4307734	3575194		Richmond Lodge Estate						
1454757	3575199		Ramsbury						
4307735	3575199		Ramsberry						
1454758	3575202		Prospect						
4307736	3575202		Prospect Estate						
1454759	3575203		Profit Estate						
1454760	3575203		Profits						
1454761	3575203		Prophet						
4307737	3575203		Profit						
1454762	3575204		Powell’s						
1454763	3575204		Powel						
1454764	3575204		Powel’s						
4307738	3575204		Powells Estate						
1454765	3575205		Potwork						
4307739	3575205		Potwork Estate						
1454766	3575211		Pogson						
4307740	3575211		Pogson’s						
1454767	3575212		Pinney’s						
1454768	3575212		Chalers						
4307741	3575212		Pinney’s Estate						
15403258	3575213	wkdt	Q7196352						
16192789	3575213	link	https://en.wikipedia.org/wiki/Pinney%27s_Beach						
1454769	3575216		Phillips Village						
4307742	3575216		Phillips						
1454770	3575218		Pembroke						
4307743	3575218		Pembroke Estate						
1454771	3575220		Stone Fort River						
1454772	3575220		Pelham River						
4307744	3575220		Pelhams River						
16829328	3575220		Pelhams						
1454773	3575221		Parson’s Ghut						
4307745	3575221		Parsons Gut						
1454774	3575222		Parson’s Village						
4307746	3575222		Parson’s Ground						
1454775	3575223		Parsons’ Estate						
4307747	3575223		Parson’s						
1454776	3575224		Perry						
1454777	3575224		Parrys Village						
4307748	3575224		Parry’s						
1454778	3575225		Parriss						
4307749	3575225		Parris						
1454779	3575227		Paradise						
4307750	3575227		Paradise Estate						
1454780	3575228		Thomas Point						
2986112	3575228	link	https://en.wikipedia.org/wiki/Palmetto_Point						
4307751	3575228		Palmetto Point						
1454781	3575230		Otleys Level						
4307752	3575230		Ottleys Hill						
1454782	3575231		Ottley’s Ghut						
4307753	3575231		Ottleys Gut						
1454783	3575232		Ottleys						
1454784	3575232		Otley						
4307754	3575232		Ottley’s Estate						
1454785	3575233		Ottley’s Village						
4307755	3575233		Ottley’s						
1454786	3575234		Otley						
4307756	3575234		Ottley’s						
2986113	3575237	link	https://en.wikipedia.org/wiki/Olivees_Mountain						
4307757	3575237		Olivees Mountain						
1454787	3575238		Olivees Estate						
4307758	3575238		Olivees						
1454788	3575239		Old Windward						
4307759	3575239		Old Windward Estate						
1454789	3575240		Old Road						
2986114	3575240	link	https://en.wikipedia.org/wiki/Old_Road_Town						
4307760	3575240		Old Road Town						
14963687	3575240	wkdt	Q3395187						
1454790	3575241		Old Road						
4307761	3575241		Old Road Bay						
1454791	3575242		Old Manor						
4307762	3575242		Old Manor Estate						
16829329	3575243		Ogees River						
16829330	3575243		Ogees						
1454792	3575244		Ogees Village						
4307763	3575244		Ogee’s						
16829331	3575246		North Olivees River						
16829332	3575246		North Olivees						
1454793	3575248		North Friar Bay						
4307764	3575248		North Friar’s Bay						
16184338	3575248	link	https://en.wikipedia.org/wiki/North_Friar%27s_Bay						
8420342	3575251	link	https://en.wikipedia.org/wiki/Nichola_Town						
8420343	3575251		Nichola Town						
11761631	3575251	fr	Nichola Town						
1454794	3575254		Newton Ground Village						
1454795	3575254		Leigh’s Village						
1454796	3575254		Lees						
4307765	3575254		Newton Ground						
7079485	3575254	link	https://en.wikipedia.org/wiki/Newton_Ground%2C_Saint_Kitts_and_Nevis						
1454797	3575260		Newcastle						
1892981	3575260	icao	TKPN						
1892982	3575260	iata	NEV						
8145470	3575260	link	https://en.wikipedia.org/wiki/Vance_W._Amory_International_Airport						
8145472	3575260		Bambooshay Airport				1		
8145474	3575260		Newcastle Airport				1		
8145475	3575260		Vance W. Amory International Airport						
13785783	3575260	unlc	KNNEV						
15205093	3575260	wkdt	Q3495906						
1454798	3575261		Newcastle Village						
2986115	3575261	link	https://en.wikipedia.org/wiki/Newcastle%2C_Saint_Kitts_and_Nevis						
4307766	3575261		Newcastle						
9708966	3575261	de	Newcastle	1					
9708967	3575261	en	Newcastle	1					
9708968	3575261	fr	Newcastle	1					
1454799	3575262		Nevis Mountain						
1454800	3575262		The Mountain						
4307767	3575262		Nevis Peak						
5713400	3575262	link	https://en.wikipedia.org/wiki/Nevis_Peak						
1454801	3575263		Nievis						
1454802	3575263		Meavis						
1454803	3575263		Dulcina						
1454804	3575263		Mevis						
1454805	3575263		Meves						
1454806	3575263		Neves						
1657224	3575263	en	Nevis						
1657225	3575263	de	Nevis						
1657226	3575263	es	Isla Nieves						
1657227	3575263	pl	Nevis						
1657228	3575263	ca	Nevis						
1657229	3575263	fr	Niévès						
1657230	3575263	ja	ネイビス島						
1657231	3575263	nl	Nevis						
1657232	3575263	no	Nevis						
1911210	3575263	fi	Nevis						
1911211	3575263	pt	Nevis						
1998431	3575263	ru	Невис						
2986116	3575263	link	https://en.wikipedia.org/wiki/Nevis						
3056517	3575263	link	https://ru.wikipedia.org/wiki/%D0%9D%D0%B5%D0%B2%D0%B8%D1%81						
4307768	3575263		Nevis						
8206066	3575263	ar	نيفيس						
8206067	3575263	sr	Невис						
8206068	3575263	mk	Невис						
8206069	3575263	th	เนวิส						
8206070	3575263	el	Νέβις						
8206071	3575263	he	נוויס						
8206072	3575263	eo	Neviso						
8206073	3575263	bg	Невис						
8206074	3575263	uk	Невіс						
8206075	3575263	ro	Insula Nevis						
8206076	3575263	gd	Nibheis						
8206077	3575263	zh	尼维斯						
11327259	3575263	be	Востраў Невіс						
11327260	3575263	fa	نویس						
11327261	3575263	ko	네비스 섬						
11327262	3575263	la	Insula Nivium						
11327263	3575263	ta	நெவிசு						
11327264	3575263	ur	ناویس						
11327265	3575263	yue	尼維斯島						
16710983	3575263	unlc	KNNEV						
1454807	3575264		Nelsons Spring						
4307769	3575264		Nelson Spring						
1454808	3575265		Needsmust						
4307770	3575265		Needsmust Estate						
8071465	3575266	link	https://en.wikipedia.org/wiki/The_Narrows_%28Saint_Kitts_and_Nevis%29						
8108711	3575266		The Narrows						
1454809	3575267		Nag’s Head						
4307771	3575267		Nags Head						
1454810	3575271		Mount Pleasant						
4307772	3575271		Mount Pleasant Estate						
1454811	3575274		Mount Lily Village						
4307773	3575274		Mount Lily						
1454812	3575278		Morning Star						
4307774	3575278		Morning Star Estate						
1454813	3575280		Morgans						
1454814	3575280		Morgan						
4307775	3575280		Morgan Estate						
1454815	3575281		Mount Travers						
1454816	3575281		Mountravers						
4307776	3575281		Montravers						
13701304	3575281		Montravers House						
1454817	3575284		Monkey Hill Village						
4307777	3575284		Monkey Hill						
14909907	3575284	wkdt	Q3395174						
16211647	3575285		Monkey Hill						
1454818	3575286		Molyneux						
4307778	3575286		Molineux Estate						
1454819	3575288		Molyneux						
4307779	3575288		Molineaux						
13701305	3575288		Molineux						
1454820	3575289		Mill’s Estate						
4307780	3575289		Mills						
1454821	3575290		Miliken						
1454822	3575290		Milliken’s Estate						
1454823	3575290		Milliken						
4307781	3575290		Milliken Estate						
1454824	3575291		Middle Work						
4307782	3575291		Middle Work Estate						
1454825	3575292		Middle Island Village						
2986118	3575292	link	https://en.wikipedia.org/wiki/Middle_Island%2C_Saint_Kitts_and_Nevis						
4307783	3575292		Middle Island						
7543421	3575296	link	https://en.wikipedia.org/wiki/Market_Shop%2C_Saint_Kitts_and_Nevis						
7566317	3575296		Market Shop						
1454826	3575299		Mansion						
4307784	3575299		Mansion Estate						
7488319	3575301	link	https://en.wikipedia.org/wiki/Mannings%2C_Saint_Kitts_and_Nevis						
7566318	3575301		Mannings						
1454827	3575304		Major Bay						
1454828	3575304		Major’s Bay						
4307785	3575304		Majors Bay						
1454829	3575306		Maddon						
4307786	3575306		Maddens						
1454830	3575307		Lynch’s Gut						
4307787	3575307		Lynches Gut						
1454831	3575308		Lynchs						
1454832	3575308		Lynch						
1454833	3575308		Lynches						
1454834	3575308		Lynch’s Estate						
4307788	3575308		Lynche’s Estate						
1454835	3575310		Low Ground						
4307789	3575310		Low Grounds						
13701306	3575310		Low Ground Settlement						
1454836	3575312		Long Point						
4307790	3575312		Long Point Estate						
1454837	3575316		Lodge Village						
4307791	3575316		Lodge						
1454838	3575320		Lower Estridge						
4307792	3575320		Little Estridge						
1454839	3575325		Mount Misery						
2986119	3575325	link	https://en.wikipedia.org/wiki/Mount_Liamuiga						
4307793	3575325		Mount Liamuiga						
1454840	3575328		Lavington Village						
1454841	3575328		Lavingtons						
1454842	3575328		Lavington						
4307794	3575328		Lavington’s Estate						
1454843	3575329		La Valee						
4307795	3575329		La Vallee Estate						
1454844	3575330		Lamberts						
1454845	3575330		Lambert’s Village						
1454846	3575330		Lambert						
4307796	3575330		Lambert’s Estate						
1454847	3575331		La Guerite Village						
4307797	3575331		La Guérite						
1454848	3575334		Kitt Stoddarts Village						
1454849	3575334		Kit Stoddarts Village						
4307798	3575334		Kit Stoddart’s						
1454850	3575336		Key Village						
4307799	3575336		Key						
16829333	3575337		Jones River						
16829334	3575337		Jones						
1454851	3575340		Johnson						
4307800	3575340		Johnsons						
1454852	3575342		Jones						
1454853	3575342		Joe Jones’ Estate						
4307801	3575342		Joe Jones						
1454854	3575343		Jessops						
1454855	3575343		Jessop						
1454856	3575343		Jessup’s Estate						
4307802	3575343		Jessup Estate						
1454857	3575344		Jessup’s Village						
4307803	3575344		Jessup						
1454858	3575345		Jeffery’s Estate						
4307804	3575345		Jeffreys						
1454859	3575347		Indian Castle						
1454860	3575347		Castle						
4307805	3575347		Indian Castle Estate						
1454861	3575348		Hutchinson						
1454862	3575348		Hutchinson’s Estate						
4307806	3575348		Hutchinsons						
1454863	3575349		Mount Lily						
1454864	3575349		Round Hill						
4307807	3575349		Hurricane Hill						
1454865	3575353		Houston						
4307808	3575353		Houstons						
1454866	3575359		Hicks						
4307809	3575359		Hick’s Estate						
1454867	3575361		Hicks Village						
4307810	3575361		Hick’s						
1454868	3575363		Hickmans Village						
4307811	3575363		Hichmans						
1454869	3575368		Hermitage House						
4307812	3575368		Hermitage						
1454870	3575370		Heldon Point						
4307813	3575370		Helden’s Point						
1454871	3575380		Hard Time						
4307814	3575380		Hardtimes						
1454872	3575381		Hanleys						
1454873	3575381		Hendley						
4307815	3575381		Hanleys Estate						
1454874	3575382		Hamilton						
1454875	3575382		Hamiltons						
4307816	3575382		Hamilton’s Estate						
1454876	3575384		Half Way Tree Village						
4307817	3575384		Half Way Tree						
1454877	3575390		Rock Point						
4307818	3575390		Green Point						
1454878	3575391		Greenhill						
4307819	3575391		Greenhill Estate						
1454879	3575392		Grande Saline						
1454880	3575392		Salt Pond						
4307820	3575392		Great Salt Pond						
6894313	3575392	link	https://en.wikipedia.org/wiki/Great_Salt_Pond						
1454881	3575398		Golden Rock						
4307821	3575398		Golden Rock Estate						
1454882	3575399	en	Golden Rock Airport				1		
1892979	3575399	icao	TKPK						
1892980	3575399	iata	SKB						
5888334	3575399	link	https://en.wikipedia.org/wiki/Robert_L._Bradshaw_International_Airport						
11665065	3575399	en	Robert L. Bradshaw International Airport	1					
11665067	3575399	ja	ロバート・L・ブラッドショー国際空港						
11665068	3575399	fa	فرودگاه بین‌المللی رابرت ل. بریدشو						
11665069	3575399	es	Aeropuerto Internacional Robert L. Bradshaw						
11665070	3575399	fr	Aéroport international Robert L. Bradshaw						
15498439	3575399	wkdt	Q1933813						
1454883	3575401		Godwin Ghut						
4307822	3575401		Godwin Gut						
1454884	3575402		Godwins						
1454885	3575402		Godwin						
4307823	3575402		Godwin Estate						
1454886	3575405		Geoghan						
4307824	3575405		Geagans						
1454887	3575406		Garveys						
4307825	3575406		Garvey’s Estate						
1454888	3575407		Gardner						
1454889	3575407		Gardner’s						
4307826	3575407		Garner Estate						
7323600	3575408		Frigate Bay						
7032761	3575409	link	https://en.wikipedia.org/wiki/Frigate_Bay						
1454890	3575411		Frontier Gut						
4307827	3575411		French River						
16829335	3575411		French						
16829336	3575413		Fountain River						
16829337	3575413		Fountain						
1454891	3575416		Fountain						
4307828	3575416		Fountain Estate						
1454892	3575417		Fountain Village						
4307829	3575417		Fountain						
1454893	3575419		Fothergill’s						
4307830	3575419		Fothergill						
1454894	3575423		Fig Tree Village						
4307831	3575423		Fig Tree						
8331112	3575423	link	https://en.wikipedia.org/wiki/Figtree,_Saint_Kitts_and_Nevis						
11761628	3575423	fr	Figtree						
16949146	3575426		Fancy River						
16949147	3575426		Fancy						
1454895	3575427		Fahie						
1454896	3575427		Fahie’s Estate						
1454897	3575427		Fahies						
4307832	3575427		Fahies Land Settlement						
1454898	3575428		Estridge						
1454899	3575428		Estridge’s						
4307833	3575428		Estridge Estate						
16829338	3575429		English River						
16829339	3575429		English						
1454900	3575430		Brown						
1454901	3575430		Eden Brown						
1454902	3575430		Eden Browne						
4307834	3575430		Eden Brown Estate						
16829340	3575432		East River						
16829341	3575432		East						
1454903	3575434		Dunbars						
4307835	3575434		Dunbar Estate						
1454904	3575436		Douglas						
4307836	3575436		Douglas Estate						
1454905	3575439		Dodan Pond						
4307837	3575439		Dos d’Âne Pond						
13701307	3575439		Dos D’ane Pond						
1454906	3575441		Dieppe Bay						
2986120	3575441	link	https://en.wikipedia.org/wiki/Dieppe_Bay_Town						
15766598	3575441	wkdt	Q1010810						
1454907	3575442		Deep Bay						
4307838	3575442		Dieppe Bay						
1454908	3575443		Dewer						
4307839	3575443		Dewars						
1454909	3575447		Cunyngham’s						
1454910	3575447		Cunninghams						
4307840	3575447		Cunningham Estate						
1454911	3575450		Cranstouns Gut						
4307841	3575450		Cranstowns Gut						
1454912	3575451		Cranstouns						
1454913	3575451		Cranston						
4307842	3575451		Cranstoun’s Estate						
1454914	3575452		Craddock’s Village						
4307843	3575452		Craddocks						
1454915	3575455		Cocks Heath						
1454916	3575455		Cox Heath						
4307844	3575455		Coxheath Estate						
1454917	3575456		Cox’s Village						
4307845	3575456		Cox						
1454918	3575458		Cotton Ground Village						
2986121	3575458	link	https://en.wikipedia.org/wiki/Cotton_Ground						
4307846	3575458		Cotton Ground						
14982957	3575458	wkdt	Q3394446						
1454919	3575460		Con Phipps						
1454920	3575460		Phipps						
4307847	3575460		Con Phipp’s Estate						
1454921	3575463		Calhoun						
1454922	3575463		Colquhoun						
1454923	3575463		Colhouns						
4307848	3575463		Colquhouns Estate						
1454924	3575466		Cocoanut Walk						
4307849	3575466		Coconut Walk Estate						
1454925	3575468		Clifton						
4307850	3575468		Cliftons						
1454926	3575469		Clifton						
4307851	3575469		Cliftons						
1454927	3575471		Clay Gut						
1454928	3575471		Claroot						
4307852	3575471		Clay Ghaut Estate						
1454929	3575472		Clarke’s Estate						
1454930	3575472		Clark						
1454931	3575472		Clarke’s						
4307853	3575472		Clark’s Estate						
1454932	3575473		Clark						
4307854	3575473		Clarkes						
2185576	3575476		Christ Church Nichola Town	1	1				
5701696	3575476	link	https://en.wikipedia.org/wiki/Christ_Church_Nichola_Town_Parish						
11761613	3575476	fr	Christ Church Nichola Town						
2986122	3575479	link	https://en.wikipedia.org/wiki/Charlestown%2C_Nevis						
3056519	3575479	link	https://ru.wikipedia.org/wiki/%D0%A7%D0%B0%D1%80%D0%BB%D1%81%D1%82%D0%B0%D1%83%D0%BD						
4307855	3575479		Charlestown						
8065569	3575479	iata	NEV						
11761627	3575479	fr	Charlestown						
13785782	3575479	unlc	KNCHA						
5899820	3575482	link	https://en.wikipedia.org/wiki/Fort_Charles_%28Nevis%29						
6128578	3575482		Fort Charles						
15651036	3575482	wkdt	Q5470906						
1454933	3575483		Challengers Village						
4307856	3575483		Challengers						
7081907	3575483	link	https://en.wikipedia.org/wiki/Challengers%2C_Saint_Kitts_and_Nevis						
15361132	3575483	wkdt	Q5068968						
1454934	3575485		Middle Range						
1454935	3575485		The Middle Range						
4307857	3575485		Central Range						
16829342	3575486		Cayon River						
16829343	3575486		Cayon						
1454936	3575487		Cayton						
1454937	3575487		Cayon Village						
2986123	3575487	link	https://en.wikipedia.org/wiki/Cayon						
4307858	3575487		Cayon						
14980648	3575487	wkdt	Q3316336						
1454938	3575489		Cane Ground						
1454939	3575489		Cane Garden						
4307859	3575489		Cane Garden Estate						
1454940	3575490		Connada Hills						
1454941	3575490		Canada Ridge						
4307860	3575490		Canada Hills						
1454942	3575492		Lower Canada						
4307861	3575492		Canada						
16829344	3575494		Camp River						
16829345	3575494		Camp						
15407020	3575495	wkdt	Q27224551						
15958995	3575495		Camp Crater						
1454943	3575500		Kades Point						
4307862	3575500		Cades Point						
15708601	3575500	wkdt	Q27224550						
1454944	3575501		Kade’s Bay Estate						
1454945	3575501		Kade’s Bay						
1454946	3575501		Cades Bay						
4307863	3575501		Cades Estate						
1454947	3575503		Butlers						
4307864	3575503		Butlers Estate						
15379964	3575504	wkdt	Q5002695						
15958996	3575504		Butlers						
1454948	3575505		Business Gut						
4307865	3575505		Business Ghut						
1454949	3575512		Box Hill						
1454950	3575512		Buck Hill Village						
4307866	3575512		Buck’s Hill						
1454951	3575513		Huckley						
1454952	3575513		Buckleys						
4307867	3575513		Buckleys Estate						
1454953	3575515		Brown Pasture Village						
4307868	3575515		Brown Pasture						
1454954	3575517		Brown						
1454955	3575517		Brownes						
4307869	3575517		Brown Estate						
1454956	3575518		Brown						
4307870	3575518		Brownes						
1454957	3575521		Brothersons						
1454958	3575521		Brotherton						
4307871	3575521		Brotherson’s Estate						
3058174	3575523	link	https://ru.wikipedia.org/wiki/%D0%91%D1%80%D0%B8%D0%BC%D1%81%D1%82%D0%BE%D1%83%D0%BD-%D0%A5%D0%B8%D0%BB%D0%BB-%D0%A4%D0%BE%D1%80%D1%82%D1%80%D0%B5%D1%81%D1%81						
4307872	3575523		Brimstone Hill						
1454959	3575524		Brighton						
4307873	3575524		Brighton Estate						
1454960	3575527		Brick Kiln Village						
4307874	3575527		Brick Kiln						
7072370	3575527	link	https://en.wikipedia.org/wiki/Brick_Kiln						
15785232	3575527	wkdt	Q4965922						
1454961	3575528		Braziers						
1454962	3575528		Brazer						
4307875	3575528		Braziers Estate						
1454963	3575529		Bramble						
4307876	3575529		Brambles						
7553987	3575531	link	https://en.wikipedia.org/wiki/Boyds%2C_Saint_Kitts_and_Nevis						
7566319	3575531		Boyd’s						
1454964	3575533		Boreo						
4307877	3575533		Bourryau						
1454965	3575534		Bourke’s Estate						
1454966	3575534		Bourkes						
4307878	3575534		Bourke’s Land Settlement						
1454967	3575535		Booby Islet						
4307879	3575535		Booby Island						
15453488	3575535	wkdt	Q892946						
8083150	3575536	link	https://en.wikipedia.org/wiki/Bloody_Point						
8108712	3575536		Bloody Point						
1454968	3575539		Bellmont						
1454969	3575539		Belmont						
4307880	3575539		Belmont Estate						
1454970	3575540		Belmont						
4307881	3575540		Belmont Estate						
1454971	3575541		Belle Vue						
4307882	3575541		Belle Vue Estate						
1454972	3575543		Pointe de Sable						
1454973	3575543		Belle-Tête Point						
1454974	3575543		Sandy Point						
4307883	3575543		Belle Tete						
9061312	3575543	en	Nice Head						
1454975	3575544		Beaumont Village						
4307884	3575544		Beaumont						
1454976	3575546		Bayfords Village						
4307885	3575546		Bayford’s						
1454977	3575547		Bayford’s Estate						
1454978	3575547		Bayford						
4307886	3575547		Bayford’s						
1454979	3575548		Bath Plain						
4307887	3575548		Bath Plain Estate						
1454980	3575549		Bath Village						
2986124	3575549	link	https://en.wikipedia.org/wiki/Bath%2C_Saint_Kitts_and_Nevis						
4307888	3575549		Bath						
1454981	3575551		Basse Terre Town						
1596232	3575551	de	Basseterre						
1596233	3575551	en	Basseterre						
1596234	3575551	es	Basseterre						
1596235	3575551	ca	Basseterre						
1596236	3575551	eo	Bastero						
1596237	3575551	fi	Basseterre						
1596238	3575551	fr	Basseterre						
1596239	3575551	hu	Basseterre						
1596240	3575551	io	Basseterre						
1596241	3575551	it	Basseterre						
1596242	3575551	ja	バセテール						
1596243	3575551	lt	Basteras						
1596244	3575551	nl	Basseterre						
1596245	3575551	no	Basseterre						
1596246	3575551	pl	Basseterre						
1596247	3575551	pt	Basseterre						
1596248	3575551	sk	Basseterre						
1596249	3575551	sr	Бастер						
1596250	3575551	sv	Basseterre						
1629408	3575551	uk	Бастер						
1649508	3575551	da	Basseterre						
1649629	3575551	el	Μπαστέρ						
1900847	3575551	he	באסטר						
1900848	3575551	id	Basseterre						
1987070	3575551	am	ባስቴር						
1987071	3575551	fa	باسه‌تر						
1987072	3575551	ru	Бастер						
2986125	3575551	link	https://en.wikipedia.org/wiki/Basseterre						
3056520	3575551	link	https://ru.wikipedia.org/wiki/%D0%91%D0%B0%D1%81%D1%82%D0%B5%D1%80						
8065488	3575551	iata	SKB						
8720678	3575551	ar	باستير						
8720679	3575551	az	Baster						
8720680	3575551	be	Бастэр						
8720681	3575551	bg	Бастер						
8720682	3575551	bo	པ་སི་ཐེར།						
8720683	3575551	ce	Бастер						
8720684	3575551	ht	Bastè						
8720685	3575551	ka	ბასტერი						
8720686	3575551	ko	바스테르						
8720687	3575551	lv	Bastera						
8720688	3575551	mk	Бастер						
8720689	3575551	mr	बासेतेर						
8720690	3575551	sah	Бастер						
8720691	3575551	ta	பாசெட்டெரே						
8720692	3575551	th	บาสแตร์						
8720693	3575551	ur	باسیتیر						
8720694	3575551	zh	巴斯特尔						
11345391	3575551	ky	Бастер						
11345392	3575551	uz	Baster						
11345393	3575551	vep	Baster						
13785781	3575551	unlc	KNBAS						
1454982	3575552		Barnes Gut Village						
4307889	3575552		Barnes Ghaut						
1454983	3575558		Bachelor Hall						
4307890	3575558		Bachelors Hall						
13701308	3575560		Ashby Fort						
13701309	3575560		Asbby Fort						
15635427	3740507	wkdt	Q27224541						
16008900	3740507		Majors Bluff						
